510.51
39 32 1 33 0 30 11 44 50 0 25 22 26 27 0 17 48 7 10 0 23 34 41 46 0 52 47 29 21 0 36 51 55 24 0 28 37 16 18 0 43 38 49 54 0 8 13 4 56 0 12 9 5 45 0 15 31 20 19 0 57 40 53 35 0 14 2 3 6 0 42 0 
19465
