196.03998;196.04001;196.0400085;2.73E-05;;avg;2;3;4
238.83998;238.83998;238.8399963;1.53E-05;;#1;196.0400085;147.8399811;125.5
275.8;275.8;275.8000183;3.05E-05;;#2;238.8399963;192.7599945;168.7700043
675.91003;677.22;676.6300049;0.49029724;;#3;275.8000183;212.8570099;204.5999908
562.06995;564.65;563.447998;0.790681018;;#4;676.6300049;490.7030334;421.848053
756.48;757.6699;756.9459229;0.374043682;;#5;563.447998;394.6950073;304.7549744
514.67993;514.68;514.6799927;1.93E-05;;#6;756.9459229;525.3599854;413.4850159
557.92;557.92004;557.9199829;2.73E-05;;#7;514.6799927;403.2449646;346.9089966
1499.3599;1499.3601;1499.360107;1.50E-04;;#8;557.9199829;392.9089966;325.4899902
1206.54;1214.1199;1209.627075;2.463911478;;#9;1499.360107;1016.568054;795.1070557
887.5401;893.0201;891.0519409;1.548256368;;#10;1209.627075;801.8579712;634.4539795
874.39996;880.95996;878.7780151;1.905220456;;#11;891.0519409;616.6639404;512.0230103
;;;;;#12;878.7780151;605.8710327;489.4259644
147.84;147.84;147.8399811;1.53E-05;;;;;
192.76;192.76;192.7599945;0;;;;;
212.42;213.83998;212.8570099;0.644322032;;;;;
489.33997;493.60995;490.7030334;1.208661493;;;;;
391.13998;403.42996;394.6950073;3.268272559;;;;;
520.0999;533.88;525.3599854;3.911674382;;;;;
400.78;411.88998;403.2449646;3.054077138;;;;;
392.74;393.73004;392.9089966;0.3065221;;;;;
1011.37;1023.95;1016.568054;4.224542082;;;;;
798.11005;812.12;801.8579712;4.287537956;;;;;
609.27;641.65;616.6639404;8.731119431;;;;;
598.86005;614.27;605.8710327;4.376862291;;;;;
;;;;;;;;
125.5;125.5;125.5;0;;;;;
168.76999;168.77;168.7700043;1.45E-05;;;;;
204.59998;204.6;204.5999908;1.53E-05;;;;;
414.02;435.84003;421.848053;7.668881679;;;;;
302.87;308.1;304.7549744;1.503023382;;;;;
411.53;416.34;413.4850159;1.646504655;;;;;
336.45;387.37;346.9089966;14.04632605;;;;;
319.06;330.31;325.4899902;3.533471163;;;;;
793.61;796.7101;795.1070557;1.151822237;;;;;
629.35004;640.81006;634.4539795;4.103738181;;;;;
505.3;518.81995;512.0230103;4.591780175;;;;;
478.28;498.37;489.4259644;5.257553805;;;;;
;;;;;;;;
