[H[2JIT10k(PID: 0)- 507.740000 1919343.000000
IT10k(PID: 0)- 507.740000 1919343.000000
IT25k(PID: 0)- 497.240000 4574857.000000
IT25k(PID: 0)- 497.240000 4574857.000000
IT50k(PID: 0)- 497.240000 8980958.000000
IT50k(PID: 0)- 497.240000 8980958.000000
IT75k(PID: 0)- 497.240000 13226163.000000
IT75k(PID: 0)- 497.240000 13226163.000000
IT100k(PID: 0)- 497.240000 17391956.000000
IT100k(PID: 0)- 497.240000 17391956.000000

 Current State ---------------------------------------------

Current trial: 1
Current iteration: 100001
Current evaluations: 1500030
Current best cost: 497.24
Current worst cost: 497.24
Current Average cost: 497.24
Current Standard Deviation: 1.76516e-13

Trial: 
Best cost trial: 497.24
Worst cost trial: 1351.67
Iteration best found in trial: 23946
Time best found trial: 4.38882e+06
Time spent in trial: 1.73921e+07

Global: 
Global best cost: 497.24
Global worst cost: 1351.67
Trial best found: 1
Iteration best found: 23946
Time best found: 4388823 4.388823032 s.


Best Solution: 
 28 39 30 4 0 29 23 17 11 0 31 10 36 13 0 18 2 7 16 0 34 38 37 35 0 40 8 26 9 0 33 19 1 21 0 5 6 14 42 0 24 15 22 27 0 25 3 20 12 0 32 41 0 0 0 0 0 0 0 0 0 0 0 0 0 0 0 0 0 0 0 0 0 0 0 0 0 0 0 0 0 0 0Solution:  28 39 30 4 0 29 23 17 11 0 31 10 36 13 0 18 2 7 16 0 34 38 37 35 0 40 8 26 9 0 33 19 1 21 0 5 6 14 42 0 24 15 22 27 0 25 3 20 12 0 32 41 0 0 0 0 0 0 0 0 0 0 0 0 0 0 0 0 0 0 0 0 0 0 0 0 0 0 0 0 0 0 0 Fitness: 497.24


 :( ---------------------- THE END --------------- :) 