[H[2JIT10k(PID: 0)- 497.970000 1708072.000000
IT10k(PID: 0)- 497.970000 1708072.000000
IT25k(PID: 0)- 489.560000 4279339.000000
IT25k(PID: 0)- 489.560000 4279339.000000
IT50k(PID: 0)- 489.350000 8535775.000000
IT50k(PID: 0)- 489.350000 8535775.000000
IT75k(PID: 0)- 489.350000 12791379.000000
IT75k(PID: 0)- 489.350000 12791379.000000
IT100k(PID: 0)- 489.350000 17036712.000000
IT100k(PID: 0)- 489.350000 17036712.000000

 Current State ---------------------------------------------

Current trial: 1
Current iteration: 100001
Current evaluations: 1500030
Current best cost: 489.35
Current worst cost: 534.13
Current Average cost: 492.335
Current Standard Deviation: 11.5621

Trial: 
Best cost trial: 489.35
Worst cost trial: 1405.85
Iteration best found in trial: 26998
Time best found trial: 4.61804e+06
Time spent in trial: 1.70369e+07

Global: 
Global best cost: 489.35
Global worst cost: 1405.85
Trial best found: 1
Iteration best found: 26998
Time best found: 4618035 4.61803484 s.


Best Solution: 
 17 23 29 0 31 10 36 13 0 18 2 7 16 0 19 33 37 35 0 40 8 26 0 34 38 24 42 0 0 5 14 15 21 0 1 22 27 0 25 3 20 12 0 6 32 41 0 39 30 4 11 0 0 0 28 9 0 0 0 0 0 0 0 0 0 0 0 0 0 0 0 0 0 0 0 0 0 0 0 0 0 0 0Solution:  17 23 29 0 31 10 36 13 0 18 2 7 16 0 19 33 37 35 0 40 8 26 0 34 38 24 42 0 0 5 14 15 21 0 1 22 27 0 25 3 20 12 0 6 32 41 0 39 30 4 11 0 0 0 28 9 0 0 0 0 0 0 0 0 0 0 0 0 0 0 0 0 0 0 0 0 0 0 0 0 0 0 0 Fitness: 489.35


 :( ---------------------- THE END --------------- :) 