[H[2JIT10k(PID: 0)- 472.210000 1736504.000000
IT10k(PID: 0)- 472.210000 1736504.000000
IT25k(PID: 0)- 450.460000 4335150.000000
IT25k(PID: 0)- 450.460000 4335150.000000
IT50k(PID: 0)- 443.850000 8679739.000000
IT50k(PID: 0)- 443.850000 8679739.000000
IT75k(PID: 0)- 427.230000 12989706.000000
IT75k(PID: 0)- 427.230000 12989706.000000
IT100k(PID: 0)- 425.950000 17172112.000000
IT100k(PID: 0)- 425.950000 17172112.000000

 Current State ---------------------------------------------

Current trial: 1
Current iteration: 100001
Current evaluations: 1500030
Current best cost: 427.23
Current worst cost: 954.9
Current Average cost: 462.408
Current Standard Deviation: 136.244

Trial: 
Best cost trial: 425.95
Worst cost trial: 1323.09
Iteration best found in trial: 77832
Time best found trial: 1.34633e+07
Time spent in trial: 1.71723e+07

Global: 
Global best cost: 425.95
Global worst cost: 1323.09
Trial best found: 1
Iteration best found: 77832
Time best found: 13463300 13.46329975 s.


Best Solution: 
 39 30 10 29 0 31 4 36 13 0 7 16 6 9 0 17 11 34 38 0 0 40 8 26 0 0 0 18 2 1 21 0 28 5 14 15 0 19 22 25 3 0 27 20 12 0 24 42 32 41 0 0 0 0 0 0 0 0 0 23 33 37 35 0 0 0 0 0 0 0 0 0 0 0 0 0 0 0 0 0 0 0 0Solution:  39 30 10 29 0 31 4 36 13 0 7 16 6 9 0 17 11 34 38 0 0 40 8 26 0 0 0 18 2 1 21 0 28 5 14 15 0 19 22 25 3 0 27 20 12 0 24 42 32 41 0 0 0 0 0 0 0 0 0 23 33 37 35 0 0 0 0 0 0 0 0 0 0 0 0 0 0 0 0 0 0 0 0 Fitness: 425.95


 :( ---------------------- THE END --------------- :) 