125.5;125.5;125.5;0.0
867;904;891.0;11.0
168.76999;169.97;168.88999938964844;0.36000314354896545
1247;1299;1278.0;15.0
204.59998;210.57999;205.9539794921875;2.3293683528900146
2130;2206;2177.0;20.0
413.58;446.88;422.4960021972656;11.945568084716797
9905;10628;10279.0;199.0
301.75;325.79004;311.4880065917969;7.968033790588379
10321;11420;11028.0;279.0
409.25998;429.9;420.343017578125;7.972167015075684
10795;11387;11111.0;152.0
336.44998;392.59;359.052001953125;17.991098403930664
4078;4228;4176.0;38.0
320.10995;344.25;329.4779968261719;6.882411956787109
4500;4695;4618.0;66.0
796.8301;811.95;803.1990356445312;4.796778202056885
6300;6494;6378.0;57.0
627.83;650.5801;636.76904296875;6.775901794433594
17940;18733;18283.0;253.0
511.45;568.79004;535.2780151367188;17.5875244140625
17106;18451;18171.0;366.0
482.11002;500.86996;491.5450134277344;5.706238269805908
17877;18500;18250.0;182.0
