[H[2JIT10k(PID: 0)- 178.810000 638888.000000
IT10k(PID: 0)- 178.810000 638888.000000
IT25k(PID: 0)- 178.810000 1284146.000000
IT25k(PID: 0)- 178.810000 1284146.000000
IT50k(PID: 0)- 178.810000 2359068.000000
IT50k(PID: 0)- 178.810000 2359068.000000
IT75k(PID: 0)- 178.810000 3433307.000000
IT75k(PID: 0)- 178.810000 3433307.000000
IT100k(PID: 0)- 178.810000 4503620.000000
IT100k(PID: 0)- 178.810000 4503620.000000

 Current State ---------------------------------------------

Current trial: 1
Current iteration: 100001
Current evaluations: 1500030
Current best cost: 178.81
Current worst cost: 178.81
Current Average cost: 178.81
Current Standard Deviation: 2.94193e-14

Trial: 
Best cost trial: 178.81
Worst cost trial: 467.13
Iteration best found in trial: 7026
Time best found trial: 511452
Time spent in trial: 4.50368e+06

Global: 
Global best cost: 178.81
Global worst cost: 467.13
Trial best found: 1
Iteration best found: 7026
Time best found: 511452 0.5114520192 s.


Best Solution: 
 0 9 2 0 8 7 11 4 0 12 5 3 1 0 0 0 10 6 0 0 0 0 0Solution:  0 9 2 0 8 7 11 4 0 12 5 3 1 0 0 0 10 6 0 0 0 0 0 Fitness: 178.81


 :( ---------------------- THE END --------------- :) 