[H[2JIT10k(PID: 0)- 168.770000 686327.000000
IT10k(PID: 0)- 168.770000 686327.000000
IT25k(PID: 0)- 168.770000 1401023.000000
IT25k(PID: 0)- 168.770000 1401023.000000
IT50k(PID: 0)- 168.770000 2586147.000000
IT50k(PID: 0)- 168.770000 2586147.000000
IT75k(PID: 0)- 168.770000 3769943.000000
IT75k(PID: 0)- 168.770000 3769943.000000
IT100k(PID: 0)- 168.770000 4951028.000000
IT100k(PID: 0)- 168.770000 4951028.000000

 Current State ---------------------------------------------

Current trial: 1
Current iteration: 100001
Current evaluations: 1500030
Current best cost: 168.77
Current worst cost: 256.17
Current Average cost: 174.597
Current Standard Deviation: 22.5666

Trial: 
Best cost trial: 168.77
Worst cost trial: 471.9
Iteration best found in trial: 607
Time best found trial: 53353
Time spent in trial: 4.9511e+06

Global: 
Global best cost: 168.77
Global worst cost: 471.9
Trial best found: 1
Iteration best found: 607
Time best found: 53353 0.05335300043 s.


Best Solution: 
 2 9 10 6 0 12 5 3 1 0 8 7 11 4 0 0 0 0 0 0 0 0 0Solution:  2 9 10 6 0 12 5 3 1 0 8 7 11 4 0 0 0 0 0 0 0 0 0 Fitness: 168.77


 :( ---------------------- THE END --------------- :) 