[H[2JIT10k(PID: 0)- 178.810000 699329.000000
IT10k(PID: 0)- 178.810000 699329.000000
IT25k(PID: 0)- 178.810000 1449326.000000
IT25k(PID: 0)- 178.810000 1449326.000000
IT50k(PID: 0)- 178.810000 2694590.000000
IT50k(PID: 0)- 178.810000 2694590.000000
IT75k(PID: 0)- 178.810000 3923008.000000
IT75k(PID: 0)- 178.810000 3923008.000000
IT100k(PID: 0)- 178.810000 5133131.000000
IT100k(PID: 0)- 178.810000 5133131.000000

 Current State ---------------------------------------------

Current trial: 1
Current iteration: 100001
Current evaluations: 1500030
Current best cost: 178.81
Current worst cost: 293.61
Current Average cost: 186.463
Current Standard Deviation: 29.6412

Trial: 
Best cost trial: 178.81
Worst cost trial: 419.57
Iteration best found in trial: 2458
Time best found trial: 216191
Time spent in trial: 5.1332e+06

Global: 
Global best cost: 178.81
Global worst cost: 419.57
Trial best found: 1
Iteration best found: 2458
Time best found: 216191 0.2161909938 s.


Best Solution: 
 0 9 2 0 8 7 11 4 0 12 5 3 1 0 0 0 0 0 0 0 0 10 6Solution:  0 9 2 0 8 7 11 4 0 12 5 3 1 0 0 0 0 0 0 0 0 10 6 Fitness: 178.81


 :( ---------------------- THE END --------------- :) 