[H[2JIT10k(PID: 0)- 168.770000 667616.000000
IT10k(PID: 0)- 168.770000 667616.000000
IT25k(PID: 0)- 168.770000 1410898.000000
IT25k(PID: 0)- 168.770000 1410898.000000
IT50k(PID: 0)- 168.770000 2647248.000000
IT50k(PID: 0)- 168.770000 2647248.000000
IT75k(PID: 0)- 168.770000 3874838.000000
IT75k(PID: 0)- 168.770000 3874838.000000
IT100k(PID: 0)- 168.770000 5028096.000000
IT100k(PID: 0)- 168.770000 5028096.000000

 Current State ---------------------------------------------

Current trial: 1
Current iteration: 100001
Current evaluations: 1500030
Current best cost: 168.77
Current worst cost: 296.96
Current Average cost: 177.316
Current Standard Deviation: 33.0985

Trial: 
Best cost trial: 168.77
Worst cost trial: 456.04
Iteration best found in trial: 305
Time best found trial: 26391
Time spent in trial: 5.02815e+06

Global: 
Global best cost: 168.77
Global worst cost: 456.04
Trial best found: 1
Iteration best found: 305
Time best found: 26391 0.02639099956 s.


Best Solution: 
 0 0 8 7 11 4 0 12 5 3 1 0 2 9 10 6 0 0 0 0 0 0 0Solution:  0 0 8 7 11 4 0 12 5 3 1 0 2 9 10 6 0 0 0 0 0 0 0 Fitness: 168.77


 :( ---------------------- THE END --------------- :) 