125.5;125.5;125.5;0.0
168.76999;168.77;168.77000427246094;1.4475758332069607E-5
204.59998;210.57999;205.0790252685547;1.462385361080081
413.11996;430.82;418.42803955078125;5.1291299535738295
301.69;321.32;307.2025146484375;5.358916747306684
411.31;428.76;414.61749267578125;3.6595862244160178
336.44998;350.82;340.26904296875;4.868467324107728
319.05997;336.71002;325.65948486328125;5.084193135274671
793.61005;804.80005;795.2681884765625;2.453981067858298
622.17004;646.26;634.2259521484375;5.816238155315396
504.86002;530.69;512.8499755859375;8.063290606967445
479.49;503.36;489.77655029296875;5.48807900499455
