125.5;125.5;125.5;0.0
168.76999;168.76999;168.77000427246094;1.52587890625E-5
204.59998;211.12;205.1625518798828;1.7110695516311916
412.60995;449.09003;421.9634704589844;9.90655537828273
302.59;321.21;307.1774597167969;5.68052140722073
410.66;418.29004;413.5050354003906;2.3828239418364805
336.44998;358.94998;343.46795654296875;6.268954851112237
319.05997;329.4;322.7975158691406;3.4067222974559996
793.61005;802.41003;795.775146484375;2.281798128559109
622.94;647.48;635.1640625;6.05261255214312
504.11;540.13995;516.7674560546875;9.8884211495581
479.10004;498.40997;488.2640075683594;4.925661811308897
