[H[2JIT10k(PID: 0)- 306.810000 982057.000000
IT10k(PID: 0)- 306.810000 982057.000000
IT25k(PID: 0)- 306.810000 2235151.000000
IT25k(PID: 0)- 306.810000 2235151.000000
IT50k(PID: 0)- 302.960000 4324698.000000
IT50k(PID: 0)- 302.960000 4324698.000000
IT75k(PID: 0)- 301.200000 6411582.000000
IT75k(PID: 0)- 301.200000 6411582.000000
IT100k(PID: 0)- 301.200000 8501020.000000
IT100k(PID: 0)- 301.200000 8501020.000000

 Current State ---------------------------------------------

Current trial: 1
Current iteration: 100001
Current evaluations: 1500030
Current best cost: 301.2
Current worst cost: 627.41
Current Average cost: 322.947
Current Standard Deviation: 84.2271

Trial: 
Best cost trial: 301.2
Worst cost trial: 891.28
Iteration best found in trial: 56553
Time best found trial: 4.87113e+06
Time spent in trial: 8.50112e+06

Global: 
Global best cost: 301.2
Global worst cost: 891.28
Trial best found: 1
Iteration best found: 56553
Time best found: 4871134 4.871133804 s.


Best Solution: 
 4 10 8 3 0 16 15 17 14 0 11 24 12 20 0 19 21 9 5 0 13 1 23 22 0 7 18 2 6 0 0 0 0 0 0 0 0 0 0 0 0 0 0 0 0 0 0Solution:  4 10 8 3 0 16 15 17 14 0 11 24 12 20 0 19 21 9 5 0 13 1 23 22 0 7 18 2 6 0 0 0 0 0 0 0 0 0 0 0 0 0 0 0 0 0 0 Fitness: 301.2


 :( ---------------------- THE END --------------- :) 