[H[2JIT10k(PID: 0)- 311.670000 1062644.000000
IT10k(PID: 0)- 311.670000 1062644.000000
IT25k(PID: 0)- 311.670000 2397451.000000
IT25k(PID: 0)- 311.670000 2397451.000000
IT50k(PID: 0)- 311.670000 4607448.000000
IT50k(PID: 0)- 311.670000 4607448.000000
IT75k(PID: 0)- 311.670000 6828464.000000
IT75k(PID: 0)- 311.670000 6828464.000000
IT100k(PID: 0)- 311.670000 8916881.000000
IT100k(PID: 0)- 311.670000 8916881.000000

 Current State ---------------------------------------------

Current trial: 1
Current iteration: 100001
Current evaluations: 1500030
Current best cost: 311.67
Current worst cost: 685.53
Current Average cost: 336.594
Current Standard Deviation: 96.5302

Trial: 
Best cost trial: 311.67
Worst cost trial: 912.03
Iteration best found in trial: 3185
Time best found trial: 449181
Time spent in trial: 8.91699e+06

Global: 
Global best cost: 311.67
Global worst cost: 912.03
Trial best found: 1
Iteration best found: 3185
Time best found: 449181 0.4491809905 s.


Best Solution: 
 4 10 8 3 0 16 15 17 14 0 24 12 20 7 0 11 19 21 9 0 13 5 1 18 0 22 23 2 6 0 0 0 0 0 0 0 0 0 0 0 0 0 0 0 0 0 0Solution:  4 10 8 3 0 16 15 17 14 0 24 12 20 7 0 11 19 21 9 0 13 5 1 18 0 22 23 2 6 0 0 0 0 0 0 0 0 0 0 0 0 0 0 0 0 0 0 Fitness: 311.67


 :( ---------------------- THE END --------------- :) 