[H[2JIT10k(PID: 0)- 422.100000 2049419.000000
IT10k(PID: 0)- 422.100000 2049419.000000
IT25k(PID: 0)- 411.300000 4902809.000000
IT25k(PID: 0)- 411.300000 4902809.000000
IT50k(PID: 0)- 395.850000 9623760.000000
IT50k(PID: 0)- 395.850000 9623760.000000
IT75k(PID: 0)- 387.920000 14270426.000000
IT75k(PID: 0)- 387.920000 14270426.000000
IT100k(PID: 0)- 387.130000 18859440.000000
IT100k(PID: 0)- 387.130000 18859440.000000

 Current State ---------------------------------------------

Current trial: 1
Current iteration: 100001
Current evaluations: 1500030
Current best cost: 387.13
Current worst cost: 387.13
Current Average cost: 387.13
Current Standard Deviation: 5.88385e-14

Trial: 
Best cost trial: 387.13
Worst cost trial: 985.25
Iteration best found in trial: 77377
Time best found trial: 1.47042e+07
Time spent in trial: 1.88596e+07

Global: 
Global best cost: 387.13
Global worst cost: 985.25
Trial best found: 1
Iteration best found: 77377
Time best found: 14704249 14.70424938 s.


Best Solution: 
 15 30 32 0 34 4 2 24 0 14 1 41 0 0 0 42 43 29 12 0 19 16 39 0 0 23 6 37 0 22 31 8 0 38 46 7 17 0 18 5 13 35 0 45 33 26 0 28 20 40 3 0 0 36 9 21 44 0 0 0 0 0 0 0 0 0 0 0 0 0 0 0 0 0 0 0 0 0 11 10 25 27 0 0 0 0 0 0 0 0 0Solution:  15 30 32 0 34 4 2 24 0 14 1 41 0 0 0 42 43 29 12 0 19 16 39 0 0 23 6 37 0 22 31 8 0 38 46 7 17 0 18 5 13 35 0 45 33 26 0 28 20 40 3 0 0 36 9 21 44 0 0 0 0 0 0 0 0 0 0 0 0 0 0 0 0 0 0 0 0 0 11 10 25 27 0 0 0 0 0 0 0 0 0 Fitness: 387.13


 :( ---------------------- THE END --------------- :) 