[H[2JIT10k(PID: 0)- 416.780000 2106741.000000
IT10k(PID: 0)- 416.780000 2106741.000000
IT25k(PID: 0)- 415.120000 5063653.000000
IT25k(PID: 0)- 415.120000 5063653.000000
IT50k(PID: 0)- 397.660000 10026750.000000
IT50k(PID: 0)- 397.660000 10026750.000000
IT75k(PID: 0)- 395.340000 15069941.000000
IT75k(PID: 0)- 395.340000 15069941.000000
IT100k(PID: 0)- 395.340000 20134676.000000
IT100k(PID: 0)- 395.340000 20134676.000000

 Current State ---------------------------------------------

Current trial: 1
Current iteration: 100001
Current evaluations: 1500030
Current best cost: 395.34
Current worst cost: 704.12
Current Average cost: 434.259
Current Standard Deviation: 90.48

Trial: 
Best cost trial: 395.34
Worst cost trial: 1009.16
Iteration best found in trial: 59471
Time best found trial: 1.19443e+07
Time spent in trial: 2.0135e+07

Global: 
Global best cost: 395.34
Global worst cost: 1009.16
Trial best found: 1
Iteration best found: 59471
Time best found: 11944297 11.94429684 s.


Best Solution: 
 15 30 36 0 34 4 2 1 0 42 32 45 44 0 38 41 16 39 0 29 23 12 28 0 24 22 21 8 0 18 5 10 9 0 0 14 46 7 17 0 43 6 37 35 0 31 33 26 0 19 20 40 3 0 0 11 25 13 27 0 0 0 0 0 0 0 0 0 0 0 0 0 0 0 0 0 0 0 0 0 0 0 0 0 0 0 0 0 0 0 0Solution:  15 30 36 0 34 4 2 1 0 42 32 45 44 0 38 41 16 39 0 29 23 12 28 0 24 22 21 8 0 18 5 10 9 0 0 14 46 7 17 0 43 6 37 35 0 31 33 26 0 19 20 40 3 0 0 11 25 13 27 0 0 0 0 0 0 0 0 0 0 0 0 0 0 0 0 0 0 0 0 0 0 0 0 0 0 0 0 0 0 0 0 Fitness: 395.34


 :( ---------------------- THE END --------------- :) 