[H[2JIT10k(PID: 0)- 414.500000 1995858.000000
IT10k(PID: 0)- 414.500000 1995858.000000
IT25k(PID: 0)- 394.720000 4758202.000000
IT25k(PID: 0)- 394.720000 4758202.000000
IT50k(PID: 0)- 394.350000 9379878.000000
IT50k(PID: 0)- 394.350000 9379878.000000
IT75k(PID: 0)- 394.350000 13995586.000000
IT75k(PID: 0)- 394.350000 13995586.000000
IT100k(PID: 0)- 394.350000 18614948.000000
IT100k(PID: 0)- 394.350000 18614948.000000

 Current State ---------------------------------------------

Current trial: 1
Current iteration: 100001
Current evaluations: 1500030
Current best cost: 394.35
Current worst cost: 714.06
Current Average cost: 418.317
Current Standard Deviation: 82.4542

Trial: 
Best cost trial: 394.35
Worst cost trial: 1001.72
Iteration best found in trial: 39404
Time best found trial: 7.42086e+06
Time spent in trial: 1.86152e+07

Global: 
Global best cost: 394.35
Global worst cost: 1001.72
Trial best found: 1
Iteration best found: 39404
Time best found: 7420861 7.420860767 s.


Best Solution: 
 42 43 0 4 2 14 32 0 15 30 19 1 0 23 12 6 37 0 38 41 16 39 0 10 9 25 27 0 24 22 21 44 0 34 46 7 0 0 29 5 13 35 0 26 33 17 0 28 20 40 3 0 45 31 8 0 0 0 0 36 11 18 0 0 0 0 0 0 0 0 0 0 0 0 0 0 0 0 0 0 0 0 0 0 0 0 0 0 0 0 0Solution:  42 43 0 4 2 14 32 0 15 30 19 1 0 23 12 6 37 0 38 41 16 39 0 10 9 25 27 0 24 22 21 44 0 34 46 7 0 0 29 5 13 35 0 26 33 17 0 28 20 40 3 0 45 31 8 0 0 0 0 36 11 18 0 0 0 0 0 0 0 0 0 0 0 0 0 0 0 0 0 0 0 0 0 0 0 0 0 0 0 0 0 Fitness: 394.35


 :( ---------------------- THE END --------------- :) 