[H[2JIT10k(PID: 0)- 206.380000 851097.000000
IT10k(PID: 0)- 206.380000 851097.000000
IT25k(PID: 0)- 206.380000 1826485.000000
IT25k(PID: 0)- 206.380000 1826485.000000
IT50k(PID: 0)- 198.540000 3451641.000000
IT50k(PID: 0)- 198.540000 3451641.000000
IT75k(PID: 0)- 191.010000 5079023.000000
IT75k(PID: 0)- 191.010000 5079023.000000
IT100k(PID: 0)- 191.010000 6708903.000000
IT100k(PID: 0)- 191.010000 6708903.000000

 Current State ---------------------------------------------

Current trial: 1
Current iteration: 100001
Current evaluations: 1500030
Current best cost: 191.01
Current worst cost: 204.7
Current Average cost: 191.923
Current Standard Deviation: 3.53474

Trial: 
Best cost trial: 191.01
Worst cost trial: 487.45
Iteration best found in trial: 54020
Time best found trial: 3.71303e+06
Time spent in trial: 6.709e+06

Global: 
Global best cost: 191.01
Global worst cost: 487.45
Trial best found: 1
Iteration best found: 54020
Time best found: 3713026 3.713026047 s.


Best Solution: 
 10 5 0 9 1 13 4 0 7 3 16 6 0 8 17 11 12 0 14 2 15 0 0 0 0 0 0 0 0 0 0 0 0Solution:  10 5 0 9 1 13 4 0 7 3 16 6 0 8 17 11 12 0 14 2 15 0 0 0 0 0 0 0 0 0 0 0 0 Fitness: 191.01


 :( ---------------------- THE END --------------- :) 