[H[2JIT10k(PID: 0)- 638.760000 2814784.000000
IT10k(PID: 0)- 638.760000 2814784.000000
IT25k(PID: 0)- 612.200000 6775879.000000
IT25k(PID: 0)- 612.200000 6775879.000000
IT50k(PID: 0)- 610.020000 13368763.000000
IT50k(PID: 0)- 610.020000 13368763.000000
IT75k(PID: 0)- 603.220000 20019306.000000
IT75k(PID: 0)- 603.220000 20019306.000000
IT100k(PID: 0)- 582.210000 26421614.000000
IT100k(PID: 0)- 582.210000 26421614.000000

 Current State ---------------------------------------------

Current trial: 1
Current iteration: 100001
Current evaluations: 1500030
Current best cost: 582.21
Current worst cost: 582.21
Current Average cost: 582.21
Current Standard Deviation: 0

Trial: 
Best cost trial: 582.21
Worst cost trial: 1672.7
Iteration best found in trial: 94628
Time best found trial: 2.50733e+07
Time spent in trial: 2.6422e+07

Global: 
Global best cost: 582.21
Global worst cost: 1672.7
Trial best found: 1
Iteration best found: 94628
Time best found: 25073306 25.07330513 s.


Best Solution: 
 12 5 56 0 52 15 24 0 0 36 9 44 50 0 54 49 40 35 0 30 53 57 1 0 23 25 13 4 0 31 47 29 18 0 17 39 32 33 0 0 20 19 21 0 0 55 37 41 46 0 48 10 6 2 0 38 43 42 14 0 8 11 45 22 0 0 0 27 26 3 7 0 0 0 0 0 0 0 0 0 0 0 0 0 0 0 0 0 0 0 0 0 51 28 34 16 0 0 0 0 0 0 0 0 0 0 0 0 0 0 0 0 0Solution:  12 5 56 0 52 15 24 0 0 36 9 44 50 0 54 49 40 35 0 30 53 57 1 0 23 25 13 4 0 31 47 29 18 0 17 39 32 33 0 0 20 19 21 0 0 55 37 41 46 0 48 10 6 2 0 38 43 42 14 0 8 11 45 22 0 0 0 27 26 3 7 0 0 0 0 0 0 0 0 0 0 0 0 0 0 0 0 0 0 0 0 0 51 28 34 16 0 0 0 0 0 0 0 0 0 0 0 0 0 0 0 0 0 Fitness: 582.21


 :( ---------------------- THE END --------------- :) 