[H[2JIT10k(PID: 0)- 653.360000 2611803.000000
IT10k(PID: 0)- 653.360000 2611803.000000
IT25k(PID: 0)- 644.860000 6535297.000000
IT25k(PID: 0)- 644.860000 6535297.000000
IT50k(PID: 0)- 641.160000 13131361.000000
IT50k(PID: 0)- 641.160000 13131361.000000
IT75k(PID: 0)- 641.160000 19659208.000000
IT75k(PID: 0)- 641.160000 19659208.000000
IT100k(PID: 0)- 638.410000 26098370.000000
IT100k(PID: 0)- 638.410000 26098370.000000

 Current State ---------------------------------------------

Current trial: 1
Current iteration: 100001
Current evaluations: 1500030
Current best cost: 639.78
Current worst cost: 1346.36
Current Average cost: 686.885
Current Standard Deviation: 182.438

Trial: 
Best cost trial: 638.41
Worst cost trial: 1698.74
Iteration best found in trial: 95492
Time best found trial: 2.49381e+07
Time spent in trial: 2.60987e+07

Global: 
Global best cost: 638.41
Global worst cost: 1698.74
Trial best found: 1
Iteration best found: 95492
Time best found: 24938084 24.93808365 s.


Best Solution: 
 51 5 12 53 0 52 15 28 37 0 30 9 54 49 0 38 57 40 35 0 44 50 0 0 0 23 25 13 10 0 31 47 29 21 0 43 4 39 42 0 20 19 18 34 0 55 16 24 46 0 36 17 14 6 0 1 32 33 2 0 48 8 45 22 0 41 27 26 0 11 3 7 0 0 56 0 0 0 0 0 0 0 0 0 0 0 0 0 0 0 0 0 0 0 0 0 0 0 0 0 0 0 0 0 0 0 0 0 0 0 0 0 0Solution:  51 5 12 53 0 52 15 28 37 0 30 9 54 49 0 38 57 40 35 0 44 50 0 0 0 23 25 13 10 0 31 47 29 21 0 43 4 39 42 0 20 19 18 34 0 55 16 24 46 0 36 17 14 6 0 1 32 33 2 0 48 8 45 22 0 41 27 26 0 11 3 7 0 0 56 0 0 0 0 0 0 0 0 0 0 0 0 0 0 0 0 0 0 0 0 0 0 0 0 0 0 0 0 0 0 0 0 0 0 0 0 0 0 Fitness: 638.41


 :( ---------------------- THE END --------------- :) 