643.83997
35 40 49 54 0 39 42 14 1 0 51 31 20 19 0 26 27 2 6 0 3 52 15 28 0 47 29 21 18 0 53 11 44 50 0 25 55 16 24 0 57 38 30 8 0 12 9 48 7 0 17 23 37 34 0 33 10 41 46 0 36 13 56 4 0 43 5 45 22 0 32 0 
19424
