[H[2JIT10k(PID: 0)- 288.790000 1016183.000000
IT10k(PID: 0)- 288.790000 1016183.000000
IT25k(PID: 0)- 270.640000 2369090.000000
IT25k(PID: 0)- 270.640000 2369090.000000
IT50k(PID: 0)- 270.640000 4617259.000000
IT50k(PID: 0)- 270.640000 4617259.000000
IT75k(PID: 0)- 270.110000 6781768.000000
IT75k(PID: 0)- 270.110000 6781768.000000
IT100k(PID: 0)- 270.110000 8940520.000000
IT100k(PID: 0)- 270.110000 8940520.000000

 Current State ---------------------------------------------

Current trial: 1
Current iteration: 100001
Current evaluations: 1500030
Current best cost: 270.11
Current worst cost: 322.81
Current Average cost: 273.623
Current Standard Deviation: 13.6071

Trial: 
Best cost trial: 270.11
Worst cost trial: 703.02
Iteration best found in trial: 62607
Time best found trial: 5.70698e+06
Time spent in trial: 8.94063e+06

Global: 
Global best cost: 270.11
Global worst cost: 703.02
Trial best found: 1
Iteration best found: 62607
Time best found: 5706975 5.706974983 s.


Best Solution: 
 4 23 0 21 2 17 24 0 6 14 13 11 0 22 7 5 1 0 0 3 9 18 0 20 16 12 8 0 15 19 10 0 0 0 0 0 0 0 0 0 0 0 0 0 0 0 0Solution:  4 23 0 21 2 17 24 0 6 14 13 11 0 22 7 5 1 0 0 3 9 18 0 20 16 12 8 0 15 19 10 0 0 0 0 0 0 0 0 0 0 0 0 0 0 0 0 Fitness: 270.11


 :( ---------------------- THE END --------------- :) 