[H[2JIT10k(PID: 0)- 601.570000 2534528.000000
IT10k(PID: 0)- 601.570000 2534528.000000
IT25k(PID: 0)- 581.320000 6122959.000000
IT25k(PID: 0)- 581.320000 6122959.000000
IT50k(PID: 0)- 575.820000 12102281.000000
IT50k(PID: 0)- 575.820000 12102281.000000
IT75k(PID: 0)- 570.380000 18064556.000000
IT75k(PID: 0)- 570.380000 18064556.000000
IT100k(PID: 0)- 570.380000 24053908.000000
IT100k(PID: 0)- 570.380000 24053908.000000

 Current State ---------------------------------------------

Current trial: 1
Current iteration: 100001
Current evaluations: 1500030
Current best cost: 570.38
Current worst cost: 570.38
Current Average cost: 570.38
Current Standard Deviation: 0

Trial: 
Best cost trial: 570.38
Worst cost trial: 1806.44
Iteration best found in trial: 59259
Time best found trial: 1.4309e+07
Time spent in trial: 2.40541e+07

Global: 
Global best cost: 570.38
Global worst cost: 1806.44
Trial best found: 1
Iteration best found: 59259
Time best found: 14308996 14.3089962 s.


Best Solution: 
 48 33 16 0 26 32 25 40 0 31 21 51 0 54 46 36 44 0 23 50 45 12 0 0 2 28 15 14 0 18 22 34 3 0 35 24 1 27 0 37 47 5 8 0 17 43 6 7 0 20 10 38 29 0 42 30 4 41 0 53 11 52 49 0 39 9 13 19 0 0 0 0 0 0 0 0 0 0 0 0 0 0 0 0 0 0 0 0 0 0 0 0 0 0 0 0 0 0 0 0 0 0 0 0 0 0 0Solution:  48 33 16 0 26 32 25 40 0 31 21 51 0 54 46 36 44 0 23 50 45 12 0 0 2 28 15 14 0 18 22 34 3 0 35 24 1 27 0 37 47 5 8 0 17 43 6 7 0 20 10 38 29 0 42 30 4 41 0 53 11 52 49 0 39 9 13 19 0 0 0 0 0 0 0 0 0 0 0 0 0 0 0 0 0 0 0 0 0 0 0 0 0 0 0 0 0 0 0 0 0 0 0 0 0 0 0 Fitness: 570.38


 :( ---------------------- THE END --------------- :) 