[H[2JIT10k(PID: 0)- 606.560000 2597570.000000
IT10k(PID: 0)- 606.560000 2597570.000000
IT25k(PID: 0)- 580.150000 6178965.000000
IT25k(PID: 0)- 580.150000 6178965.000000
IT50k(PID: 0)- 573.050000 12164623.000000
IT50k(PID: 0)- 573.050000 12164623.000000
IT75k(PID: 0)- 573.050000 18138112.000000
IT75k(PID: 0)- 573.050000 18138112.000000
IT100k(PID: 0)- 573.050000 24135836.000000
IT100k(PID: 0)- 573.050000 24135836.000000

 Current State ---------------------------------------------

Current trial: 1
Current iteration: 100001
Current evaluations: 1500030
Current best cost: 573.05
Current worst cost: 1107.02
Current Average cost: 615.781
Current Standard Deviation: 138.663

Trial: 
Best cost trial: 573.05
Worst cost trial: 1760.78
Iteration best found in trial: 36519
Time best found trial: 8.93956e+06
Time spent in trial: 2.41361e+07

Global: 
Global best cost: 573.05
Global worst cost: 1760.78
Trial best found: 1
Iteration best found: 36519
Time best found: 8939560 8.939559937 s.


Best Solution: 
 23 16 0 26 32 25 40 0 18 22 19 12 0 39 9 28 15 0 31 51 21 44 0 48 54 13 50 0 37 47 3 8 0 35 24 1 27 0 43 30 42 2 0 17 34 6 7 0 36 10 38 29 0 5 4 14 41 0 53 11 52 49 0 33 20 46 45 0 0 0 0 0 0 0 0 0 0 0 0 0 0 0 0 0 0 0 0 0 0 0 0 0 0 0 0 0 0 0 0 0 0 0 0 0 0 0 0Solution:  23 16 0 26 32 25 40 0 18 22 19 12 0 39 9 28 15 0 31 51 21 44 0 48 54 13 50 0 37 47 3 8 0 35 24 1 27 0 43 30 42 2 0 17 34 6 7 0 36 10 38 29 0 5 4 14 41 0 53 11 52 49 0 33 20 46 45 0 0 0 0 0 0 0 0 0 0 0 0 0 0 0 0 0 0 0 0 0 0 0 0 0 0 0 0 0 0 0 0 0 0 0 0 0 0 0 0 Fitness: 573.05


 :( ---------------------- THE END --------------- :) 