[H[2JIT10k(PID: 0)- 843.470000 1485247.000000
IT10k(PID: 0)- 843.470000 1485247.000000
IT25k(PID: 0)- 821.500000 3484187.000000
IT25k(PID: 0)- 821.500000 3484187.000000
IT50k(PID: 0)- 821.500000 6793881.000000
IT50k(PID: 0)- 821.500000 6793881.000000
IT75k(PID: 0)- 821.500000 10106644.000000
IT75k(PID: 0)- 821.500000 10106644.000000
IT100k(PID: 0)- 821.500000 13428399.000000
IT100k(PID: 0)- 821.500000 13428399.000000

 Current State ---------------------------------------------

Current trial: 1
Current iteration: 100001
Current evaluations: 1500030
Current best cost: 821.5
Current worst cost: 821.5
Current Average cost: 821.5
Current Standard Deviation: 0

Trial: 
Best cost trial: 821.5
Worst cost trial: 1935.94
Iteration best found in trial: 17534
Time best found trial: 2.48901e+06
Time spent in trial: 1.34285e+07

Global: 
Global best cost: 821.5
Global worst cost: 1935.94
Trial best found: 1
Iteration best found: 17534
Time best found: 2489012 2.489012003 s.


Best Solution: 
 18 30 32 15 0 22 19 21 4 0 25 16 29 24 0 10 5 12 17 0 6 2 27 28 0 1 14 11 13 0 0 23 26 3 33 0 7 9 31 8 0 0 0 20 0 0 0 0 0 0 0 0 0 0 0 0 0 0 0 0 0 0 0 0 0Solution:  18 30 32 15 0 22 19 21 4 0 25 16 29 24 0 10 5 12 17 0 6 2 27 28 0 1 14 11 13 0 0 23 26 3 33 0 7 9 31 8 0 0 0 20 0 0 0 0 0 0 0 0 0 0 0 0 0 0 0 0 0 0 0 0 0 Fitness: 821.5


 :( ---------------------- THE END --------------- :) 