[H[2JIT10k(PID: 0)- 856.080000 1498590.000000
IT10k(PID: 0)- 856.080000 1498590.000000
IT25k(PID: 0)- 844.580000 3365952.000000
IT25k(PID: 0)- 844.580000 3365952.000000
IT50k(PID: 0)- 833.720000 6572482.000000
IT50k(PID: 0)- 833.720000 6572482.000000
IT75k(PID: 0)- 825.560000 9702241.000000
IT75k(PID: 0)- 825.560000 9702241.000000
IT100k(PID: 0)- 825.560000 12797382.000000
IT100k(PID: 0)- 825.560000 12797382.000000

 Current State ---------------------------------------------

Current trial: 1
Current iteration: 100001
Current evaluations: 1500030
Current best cost: 825.56
Current worst cost: 825.56
Current Average cost: 825.56
Current Standard Deviation: 3.53031e-13

Trial: 
Best cost trial: 825.56
Worst cost trial: 1836.58
Iteration best found in trial: 59050
Time best found trial: 7.72922e+06
Time spent in trial: 1.27975e+07

Global: 
Global best cost: 825.56
Global worst cost: 1836.58
Trial best found: 1
Iteration best found: 59050
Time best found: 7729216 7.729216099 s.


Best Solution: 
 20 18 30 32 0 22 19 21 0 25 16 29 15 0 10 5 14 26 0 6 2 0 27 28 1 23 0 0 7 9 12 33 0 4 13 11 31 0 24 17 3 8 0 0 0 0 0 0 0 0 0 0 0 0 0 0 0 0 0 0 0 0 0 0 0Solution:  20 18 30 32 0 22 19 21 0 25 16 29 15 0 10 5 14 26 0 6 2 0 27 28 1 23 0 0 7 9 12 33 0 4 13 11 31 0 24 17 3 8 0 0 0 0 0 0 0 0 0 0 0 0 0 0 0 0 0 0 0 0 0 0 0 Fitness: 825.56


 :( ---------------------- THE END --------------- :) 