[H[2JIT10k(PID: 0)- 846.370000 1515571.000000
IT10k(PID: 0)- 846.370000 1515571.000000
IT25k(PID: 0)- 846.370000 3420750.000000
IT25k(PID: 0)- 846.370000 3420750.000000
IT50k(PID: 0)- 846.370000 6567615.000000
IT50k(PID: 0)- 846.370000 6567615.000000
IT75k(PID: 0)- 846.370000 9716481.000000
IT75k(PID: 0)- 846.370000 9716481.000000
IT100k(PID: 0)- 846.370000 12860555.000000
IT100k(PID: 0)- 846.370000 12860555.000000

 Current State ---------------------------------------------

Current trial: 1
Current iteration: 100001
Current evaluations: 1500030
Current best cost: 846.37
Current worst cost: 846.37
Current Average cost: 846.37
Current Standard Deviation: 3.53031e-13

Trial: 
Best cost trial: 846.37
Worst cost trial: 1975.12
Iteration best found in trial: 4560
Time best found trial: 802562
Time spent in trial: 1.28607e+07

Global: 
Global best cost: 846.37
Global worst cost: 1975.12
Trial best found: 1
Iteration best found: 4560
Time best found: 802562 0.8025619984 s.


Best Solution: 
 20 18 30 32 0 22 19 21 0 0 0 16 29 15 0 10 7 9 12 0 6 2 28 27 0 23 1 5 14 0 24 26 17 33 0 11 31 8 3 0 25 4 13 0 0 0 0 0 0 0 0 0 0 0 0 0 0 0 0 0 0 0 0 0 0Solution:  20 18 30 32 0 22 19 21 0 0 0 16 29 15 0 10 7 9 12 0 6 2 28 27 0 23 1 5 14 0 24 26 17 33 0 11 31 8 3 0 25 4 13 0 0 0 0 0 0 0 0 0 0 0 0 0 0 0 0 0 0 0 0 0 0 Fitness: 846.37


 :( ---------------------- THE END --------------- :) 