[H[2JIT10k(PID: 0)- 846.900000 1334292.000000
IT10k(PID: 0)- 846.900000 1334292.000000
IT25k(PID: 0)- 846.380000 3329430.000000
IT25k(PID: 0)- 846.380000 3329430.000000
IT50k(PID: 0)- 846.380000 6620021.000000
IT50k(PID: 0)- 846.380000 6620021.000000
IT75k(PID: 0)- 846.380000 9974669.000000
IT75k(PID: 0)- 846.380000 9974669.000000
IT100k(PID: 0)- 846.380000 13012910.000000
IT100k(PID: 0)- 846.380000 13012910.000000

 Current State ---------------------------------------------

Current trial: 1
Current iteration: 100001
Current evaluations: 1500030
Current best cost: 846.38
Current worst cost: 846.38
Current Average cost: 846.38
Current Standard Deviation: 3.53031e-13

Trial: 
Best cost trial: 846.38
Worst cost trial: 1945.17
Iteration best found in trial: 10453
Time best found trial: 1.39492e+06
Time spent in trial: 1.3013e+07

Global: 
Global best cost: 846.38
Global worst cost: 1945.17
Trial best found: 1
Iteration best found: 10453
Time best found: 1394925 1.394924998 s.


Best Solution: 
 20 18 30 32 0 22 19 21 0 25 16 29 15 0 7 10 1 23 0 6 2 27 28 0 9 26 12 17 0 5 14 3 33 0 4 11 13 0 24 31 8 0 0 0 0 0 0 0 0 0 0 0 0 0 0 0 0 0 0 0 0 0 0 0 0Solution:  20 18 30 32 0 22 19 21 0 25 16 29 15 0 7 10 1 23 0 6 2 27 28 0 9 26 12 17 0 5 14 3 33 0 4 11 13 0 24 31 8 0 0 0 0 0 0 0 0 0 0 0 0 0 0 0 0 0 0 0 0 0 0 0 0 Fitness: 846.38


 :( ---------------------- THE END --------------- :) 