[H[2JIT10k(PID: 0)- 677.670000 2839463.000000
IT10k(PID: 0)- 677.670000 2839463.000000
IT25k(PID: 0)- 665.320000 6867478.000000
IT25k(PID: 0)- 665.320000 6867478.000000
IT50k(PID: 0)- 644.540000 13503397.000000
IT50k(PID: 0)- 644.540000 13503397.000000
IT75k(PID: 0)- 644.320000 20084064.000000
IT75k(PID: 0)- 644.320000 20084064.000000
IT100k(PID: 0)- 643.530000 26617996.000000
IT100k(PID: 0)- 643.530000 26617996.000000

 Current State ---------------------------------------------

Current trial: 1
Current iteration: 100001
Current evaluations: 1500030
Current best cost: 643.53
Current worst cost: 871.77
Current Average cost: 658.746
Current Standard Deviation: 58.9313

Trial: 
Best cost trial: 643.53
Worst cost trial: 1878.28
Iteration best found in trial: 77963
Time best found trial: 2.08601e+07
Time spent in trial: 2.66182e+07

Global: 
Global best cost: 643.53
Global worst cost: 1878.28
Trial best found: 1
Iteration best found: 77963
Time best found: 20860108 20.86010742 s.


Best Solution: 
 32 39 42 0 53 49 8 0 35 40 54 0 33 45 22 1 0 17 12 9 48 0 43 25 23 28 0 57 52 51 13 0 38 30 11 4 0 14 5 7 10 0 55 16 34 24 0 56 20 19 21 0 47 31 29 18 0 26 27 2 6 0 15 37 41 46 0 0 3 36 44 50 0 0 0 0 0 0 0 0 0 0 0 0 0 0 0 0 0 0 0 0 0 0 0 0 0 0 0 0 0 0 0 0 0 0 0 0 0 0 0 0 0Solution:  32 39 42 0 53 49 8 0 35 40 54 0 33 45 22 1 0 17 12 9 48 0 43 25 23 28 0 57 52 51 13 0 38 30 11 4 0 14 5 7 10 0 55 16 34 24 0 56 20 19 21 0 47 31 29 18 0 26 27 2 6 0 15 37 41 46 0 0 3 36 44 50 0 0 0 0 0 0 0 0 0 0 0 0 0 0 0 0 0 0 0 0 0 0 0 0 0 0 0 0 0 0 0 0 0 0 0 0 0 0 0 0 0 Fitness: 643.53


 :( ---------------------- THE END --------------- :) 