[H[2JIT10k(PID: 0)- 701.250000 4552654.000000
IT10k(PID: 0)- 701.250000 4552654.000000
IT25k(PID: 0)- 683.510000 11517942.000000
IT25k(PID: 0)- 683.510000 11517942.000000
IT50k(PID: 0)- 673.400000 20762804.000000
IT50k(PID: 0)- 673.400000 20762804.000000
IT75k(PID: 0)- 672.840000 27454632.000000
IT75k(PID: 0)- 672.840000 27454632.000000
IT100k(PID: 0)- 672.840000 33898244.000000
IT100k(PID: 0)- 672.840000 33898244.000000

 Current State ---------------------------------------------

Current trial: 1
Current iteration: 100001
Current evaluations: 1500030
Current best cost: 672.84
Current worst cost: 951.02
Current Average cost: 691.385
Current Standard Deviation: 71.8258

Trial: 
Best cost trial: 672.84
Worst cost trial: 1912.15
Iteration best found in trial: 51462
Time best found trial: 2.12396e+07
Time spent in trial: 3.38985e+07

Global: 
Global best cost: 672.84
Global worst cost: 1912.15
Trial best found: 1
Iteration best found: 51462
Time best found: 21239608 21.23960876 s.


Best Solution: 
 32 39 42 14 0 35 40 49 54 0 33 45 22 1 0 17 25 5 48 0 30 11 4 56 0 43 23 55 16 0 53 8 51 13 0 12 9 7 10 0 15 28 34 18 0 44 50 19 20 0 47 31 29 21 0 26 27 2 6 0 37 24 41 46 0 0 3 36 52 0 57 38 0 0 0 0 0 0 0 0 0 0 0 0 0 0 0 0 0 0 0 0 0 0 0 0 0 0 0 0 0 0 0 0 0 0 0 0 0 0 0 0 0Solution:  32 39 42 14 0 35 40 49 54 0 33 45 22 1 0 17 25 5 48 0 30 11 4 56 0 43 23 55 16 0 53 8 51 13 0 12 9 7 10 0 15 28 34 18 0 44 50 19 20 0 47 31 29 21 0 26 27 2 6 0 37 24 41 46 0 0 3 36 52 0 57 38 0 0 0 0 0 0 0 0 0 0 0 0 0 0 0 0 0 0 0 0 0 0 0 0 0 0 0 0 0 0 0 0 0 0 0 0 0 0 0 0 0 Fitness: 672.84


 :( ---------------------- THE END --------------- :) 