[H[2JIT10k(PID: 0)- 709.350000 2891892.000000
IT10k(PID: 0)- 709.350000 2891892.000000
IT25k(PID: 0)- 661.600000 6940005.000000
IT25k(PID: 0)- 661.600000 6940005.000000
IT50k(PID: 0)- 647.340000 13536070.000000
IT50k(PID: 0)- 647.340000 13536070.000000
IT75k(PID: 0)- 647.220000 20056472.000000
IT75k(PID: 0)- 647.220000 20056472.000000
IT100k(PID: 0)- 647.220000 26495468.000000
IT100k(PID: 0)- 647.220000 26495468.000000

 Current State ---------------------------------------------

Current trial: 1
Current iteration: 100001
Current evaluations: 1500030
Current best cost: 647.22
Current worst cost: 647.22
Current Average cost: 647.22
Current Standard Deviation: 0

Trial: 
Best cost trial: 647.22
Worst cost trial: 1946.83
Iteration best found in trial: 54770
Time best found trial: 1.48432e+07
Time spent in trial: 2.64958e+07

Global: 
Global best cost: 647.22
Global worst cost: 1946.83
Trial best found: 1
Iteration best found: 54770
Time best found: 14843163 14.84316254 s.


Best Solution: 
 32 39 25 9 0 57 38 43 0 35 53 40 0 0 33 7 41 46 0 42 14 45 10 0 8 11 4 56 0 30 13 51 55 0 49 54 44 50 0 17 5 1 22 0 15 28 37 24 0 0 31 20 19 21 0 47 29 18 0 26 27 2 6 0 12 48 16 34 0 3 36 52 23 0 0 0 0 0 0 0 0 0 0 0 0 0 0 0 0 0 0 0 0 0 0 0 0 0 0 0 0 0 0 0 0 0 0 0 0 0 0 0 0Solution:  32 39 25 9 0 57 38 43 0 35 53 40 0 0 33 7 41 46 0 42 14 45 10 0 8 11 4 56 0 30 13 51 55 0 49 54 44 50 0 17 5 1 22 0 15 28 37 24 0 0 31 20 19 21 0 47 29 18 0 26 27 2 6 0 12 48 16 34 0 3 36 52 23 0 0 0 0 0 0 0 0 0 0 0 0 0 0 0 0 0 0 0 0 0 0 0 0 0 0 0 0 0 0 0 0 0 0 0 0 0 0 0 0 Fitness: 647.22


 :( ---------------------- THE END --------------- :) 