[H[2JIT10k(PID: 0)- 592.980000 2879664.000000
IT10k(PID: 0)- 592.980000 2879664.000000
IT25k(PID: 0)- 568.780000 6975204.000000
IT25k(PID: 0)- 568.780000 6975204.000000
IT50k(PID: 0)- 527.110000 13367711.000000
IT50k(PID: 0)- 527.110000 13367711.000000
IT75k(PID: 0)- 523.450000 19752320.000000
IT75k(PID: 0)- 523.450000 19752320.000000
IT100k(PID: 0)- 523.450000 26142240.000000
IT100k(PID: 0)- 523.450000 26142240.000000

 Current State ---------------------------------------------

Current trial: 1
Current iteration: 100001
Current evaluations: 1500030
Current best cost: 523.45
Current worst cost: 963.01
Current Average cost: 552.754
Current Standard Deviation: 113.494

Trial: 
Best cost trial: 523.45
Worst cost trial: 1640.27
Iteration best found in trial: 50256
Time best found trial: 1.34318e+07
Time spent in trial: 2.61425e+07

Global: 
Global best cost: 523.45
Global worst cost: 1640.27
Trial best found: 1
Iteration best found: 50256
Time best found: 13431850 13.43185043 s.


Best Solution: 
 43 17 5 2 0 39 14 42 33 0 57 40 54 50 0 36 52 28 37 0 32 1 35 53 0 38 49 11 44 0 12 9 7 10 0 8 30 13 4 0 25 22 41 46 0 45 27 26 0 0 15 47 31 29 0 23 55 16 24 0 51 56 20 19 0 48 34 18 21 0 3 6 0 0 0 0 0 0 0 0 0 0 0 0 0 0 0 0 0 0 0 0 0 0 0 0 0 0 0 0 0 0 0 0 0 0 0 0 0 0 0 0 0Solution:  43 17 5 2 0 39 14 42 33 0 57 40 54 50 0 36 52 28 37 0 32 1 35 53 0 38 49 11 44 0 12 9 7 10 0 8 30 13 4 0 25 22 41 46 0 45 27 26 0 0 15 47 31 29 0 23 55 16 24 0 51 56 20 19 0 48 34 18 21 0 3 6 0 0 0 0 0 0 0 0 0 0 0 0 0 0 0 0 0 0 0 0 0 0 0 0 0 0 0 0 0 0 0 0 0 0 0 0 0 0 0 0 0 Fitness: 523.45


 :( ---------------------- THE END --------------- :) 