[H[2JIT10k(PID: 0)- 399.100000 1009955.000000
IT10k(PID: 0)- 399.100000 1009955.000000
IT25k(PID: 0)- 377.390000 2511907.000000
IT25k(PID: 0)- 377.390000 2511907.000000
IT50k(PID: 0)- 377.390000 5020339.000000
IT50k(PID: 0)- 377.390000 5020339.000000
IT75k(PID: 0)- 377.390000 7504595.000000
IT75k(PID: 0)- 377.390000 7504595.000000
IT100k(PID: 0)- 377.390000 9831371.000000
IT100k(PID: 0)- 377.390000 9831371.000000

 Current State ---------------------------------------------

Current trial: 1
Current iteration: 100001
Current evaluations: 1500030
Current best cost: 377.39
Current worst cost: 377.39
Current Average cost: 377.39
Current Standard Deviation: 5.88385e-14

Trial: 
Best cost trial: 377.39
Worst cost trial: 1008.16
Iteration best found in trial: 12779
Time best found trial: 1.28814e+06
Time spent in trial: 9.83146e+06

Global: 
Global best cost: 377.39
Global worst cost: 1008.16
Trial best found: 1
Iteration best found: 12779
Time best found: 1288144 1.288143992 s.


Best Solution: 
 11 20 15 4 0 16 14 13 18 0 26 19 23 9 0 24 17 5 0 10 7 21 3 0 12 25 0 2 22 0 6 8 1 0 0 0 0 0 0 0 0 0 0 0 0 0 0 0 0 0 0Solution:  11 20 15 4 0 16 14 13 18 0 26 19 23 9 0 24 17 5 0 10 7 21 3 0 12 25 0 2 22 0 6 8 1 0 0 0 0 0 0 0 0 0 0 0 0 0 0 0 0 0 0 Fitness: 377.39


 :( ---------------------- THE END --------------- :) 