[H[2JIT10k(PID: 0)- 352.410000 971612.000000
IT10k(PID: 0)- 352.410000 971612.000000
IT25k(PID: 0)- 348.970000 2422466.000000
IT25k(PID: 0)- 348.970000 2422466.000000
IT50k(PID: 0)- 348.970000 4821692.000000
IT50k(PID: 0)- 348.970000 4821692.000000
IT75k(PID: 0)- 348.970000 7218175.000000
IT75k(PID: 0)- 348.970000 7218175.000000
IT100k(PID: 0)- 348.970000 9616090.000000
IT100k(PID: 0)- 348.970000 9616090.000000

 Current State ---------------------------------------------

Current trial: 1
Current iteration: 100001
Current evaluations: 1500030
Current best cost: 348.97
Current worst cost: 348.97
Current Average cost: 348.97
Current Standard Deviation: 1.17677e-13

Trial: 
Best cost trial: 348.97
Worst cost trial: 1003.44
Iteration best found in trial: 21102
Time best found trial: 2.04635e+06
Time spent in trial: 9.61618e+06

Global: 
Global best cost: 348.97
Global worst cost: 1003.44
Trial best found: 1
Iteration best found: 21102
Time best found: 2046354 2.046354055 s.


Best Solution: 
 16 11 15 4 0 20 14 13 18 0 26 19 23 9 0 24 17 2 22 0 10 7 21 3 0 12 25 0 5 6 8 1 0 0 0 0 0 0 0 0 0 0 0 0 0 0 0 0 0 0 0Solution:  16 11 15 4 0 20 14 13 18 0 26 19 23 9 0 24 17 2 22 0 10 7 21 3 0 12 25 0 5 6 8 1 0 0 0 0 0 0 0 0 0 0 0 0 0 0 0 0 0 0 0 Fitness: 348.97


 :( ---------------------- THE END --------------- :) 