[H[2JIT10k(PID: 0)- 819.910000 2875846.000000
IT10k(PID: 0)- 819.910000 2875846.000000
IT25k(PID: 0)- 802.580000 6865903.000000
IT25k(PID: 0)- 802.580000 6865903.000000
IT50k(PID: 0)- 791.280000 13593421.000000
IT50k(PID: 0)- 791.280000 13593421.000000
IT75k(PID: 0)- 791.280000 20025324.000000
IT75k(PID: 0)- 791.280000 20025324.000000
IT100k(PID: 0)- 791.280000 26452008.000000
IT100k(PID: 0)- 791.280000 26452008.000000

 Current State ---------------------------------------------

Current trial: 1
Current iteration: 100001
Current evaluations: 1500030
Current best cost: 791.28
Current worst cost: 791.28
Current Average cost: 791.28
Current Standard Deviation: 1.17677e-13

Trial: 
Best cost trial: 791.28
Worst cost trial: 2058.11
Iteration best found in trial: 45348
Time best found trial: 1.22033e+07
Time spent in trial: 2.64522e+07

Global: 
Global best cost: 791.28
Global worst cost: 2058.11
Trial best found: 1
Iteration best found: 45348
Time best found: 12203328 12.20332813 s.


Best Solution: 
 11 55 8 0 6 5 48 47 0 38 56 3 42 0 19 16 50 25 0 12 57 39 17 0 13 36 24 45 0 20 4 51 33 0 27 22 14 37 0 34 1 28 18 0 21 54 26 9 0 2 7 52 29 0 49 40 10 41 0 30 35 31 32 0 53 44 46 23 0 15 43 0 0 0 0 0 0 0 0 0 0 0 0 0 0 0 0 0 0 0 0 0 0 0 0 0 0 0 0 0 0 0 0 0 0 0 0 0 0 0 0 0 0Solution:  11 55 8 0 6 5 48 47 0 38 56 3 42 0 19 16 50 25 0 12 57 39 17 0 13 36 24 45 0 20 4 51 33 0 27 22 14 37 0 34 1 28 18 0 21 54 26 9 0 2 7 52 29 0 49 40 10 41 0 30 35 31 32 0 53 44 46 23 0 15 43 0 0 0 0 0 0 0 0 0 0 0 0 0 0 0 0 0 0 0 0 0 0 0 0 0 0 0 0 0 0 0 0 0 0 0 0 0 0 0 0 0 0 Fitness: 791.28


 :( ---------------------- THE END --------------- :) 