[H[2JIT10k(PID: 0)- 815.330000 2852212.000000
IT10k(PID: 0)- 815.330000 2852212.000000
IT25k(PID: 0)- 793.860000 6973192.000000
IT25k(PID: 0)- 793.860000 6973192.000000
IT50k(PID: 0)- 749.350000 13768606.000000
IT50k(PID: 0)- 749.350000 13768606.000000
IT75k(PID: 0)- 749.350000 20502452.000000
IT75k(PID: 0)- 749.350000 20502452.000000
IT100k(PID: 0)- 749.350000 27229612.000000
IT100k(PID: 0)- 749.350000 27229612.000000

 Current State ---------------------------------------------

Current trial: 1
Current iteration: 100001
Current evaluations: 1500030
Current best cost: 749.35
Current worst cost: 779.33
Current Average cost: 751.349
Current Standard Deviation: 7.7408

Trial: 
Best cost trial: 749.35
Worst cost trial: 2128.92
Iteration best found in trial: 48474
Time best found trial: 1.33592e+07
Time spent in trial: 2.72299e+07

Global: 
Global best cost: 749.35
Global worst cost: 2128.92
Trial best found: 1
Iteration best found: 48474
Time best found: 13359214 13.35921383 s.


Best Solution: 
 0 11 55 8 0 6 5 2 0 0 21 3 26 54 0 19 27 16 25 0 57 39 17 23 0 13 36 24 45 0 20 4 28 30 0 34 1 9 37 0 38 56 42 50 0 14 51 29 10 0 47 18 35 33 0 22 41 53 44 0 49 7 52 40 0 48 46 31 32 0 0 0 12 15 43 0 0 0 0 0 0 0 0 0 0 0 0 0 0 0 0 0 0 0 0 0 0 0 0 0 0 0 0 0 0 0 0 0 0 0 0 0 0Solution:  0 11 55 8 0 6 5 2 0 0 21 3 26 54 0 19 27 16 25 0 57 39 17 23 0 13 36 24 45 0 20 4 28 30 0 34 1 9 37 0 38 56 42 50 0 14 51 29 10 0 47 18 35 33 0 22 41 53 44 0 49 7 52 40 0 48 46 31 32 0 0 0 12 15 43 0 0 0 0 0 0 0 0 0 0 0 0 0 0 0 0 0 0 0 0 0 0 0 0 0 0 0 0 0 0 0 0 0 0 0 0 0 0 Fitness: 749.35


 :( ---------------------- THE END --------------- :) 