[H[2JIT10k(PID: 0)- 825.310000 2762843.000000
IT10k(PID: 0)- 825.310000 2762843.000000
IT25k(PID: 0)- 806.210000 6826053.000000
IT25k(PID: 0)- 806.210000 6826053.000000
IT50k(PID: 0)- 805.090000 13455189.000000
IT50k(PID: 0)- 805.090000 13455189.000000
IT75k(PID: 0)- 802.560000 20031014.000000
IT75k(PID: 0)- 802.560000 20031014.000000
IT100k(PID: 0)- 796.220000 26675268.000000
IT100k(PID: 0)- 796.220000 26675268.000000

 Current State ---------------------------------------------

Current trial: 1
Current iteration: 100001
Current evaluations: 1500030
Current best cost: 796.22
Current worst cost: 796.22
Current Average cost: 796.22
Current Standard Deviation: 1.17677e-13

Trial: 
Best cost trial: 796.22
Worst cost trial: 2049.1
Iteration best found in trial: 91752
Time best found trial: 2.44433e+07
Time spent in trial: 2.66756e+07

Global: 
Global best cost: 796.22
Global worst cost: 2049.1
Trial best found: 1
Iteration best found: 91752
Time best found: 24443348 24.44334793 s.


Best Solution: 
 0 55 8 0 6 5 48 2 0 38 56 26 54 0 19 27 16 25 0 12 57 39 17 0 13 36 24 45 0 34 28 7 47 0 51 10 53 41 0 20 1 50 42 0 21 3 9 37 0 22 4 33 29 0 49 40 52 18 0 14 32 31 44 0 30 35 46 23 0 0 0 11 15 43 0 0 0 0 0 0 0 0 0 0 0 0 0 0 0 0 0 0 0 0 0 0 0 0 0 0 0 0 0 0 0 0 0 0 0 0 0 0 0Solution:  0 55 8 0 6 5 48 2 0 38 56 26 54 0 19 27 16 25 0 12 57 39 17 0 13 36 24 45 0 34 28 7 47 0 51 10 53 41 0 20 1 50 42 0 21 3 9 37 0 22 4 33 29 0 49 40 52 18 0 14 32 31 44 0 30 35 46 23 0 0 0 11 15 43 0 0 0 0 0 0 0 0 0 0 0 0 0 0 0 0 0 0 0 0 0 0 0 0 0 0 0 0 0 0 0 0 0 0 0 0 0 0 0 Fitness: 796.22


 :( ---------------------- THE END --------------- :) 