[H[2JIT10k(PID: 0)- 876.810000 2925320.000000
IT10k(PID: 0)- 876.810000 2925320.000000
IT25k(PID: 0)- 867.970000 7029888.000000
IT25k(PID: 0)- 867.970000 7029888.000000
IT50k(PID: 0)- 862.340000 13605449.000000
IT50k(PID: 0)- 862.340000 13605449.000000
IT75k(PID: 0)- 850.310000 20128388.000000
IT75k(PID: 0)- 850.310000 20128388.000000
IT100k(PID: 0)- 849.910000 26679594.000000
IT100k(PID: 0)- 849.910000 26679594.000000

 Current State ---------------------------------------------

Current trial: 1
Current iteration: 100001
Current evaluations: 1500030
Current best cost: 849.91
Current worst cost: 849.91
Current Average cost: 849.91
Current Standard Deviation: 0

Trial: 
Best cost trial: 849.91
Worst cost trial: 2005.25
Iteration best found in trial: 95753
Time best found trial: 2.5598e+07
Time spent in trial: 2.66798e+07

Global: 
Global best cost: 849.91
Global worst cost: 2005.25
Trial best found: 1
Iteration best found: 95753
Time best found: 25598012 25.59801292 s.


Best Solution: 
 11 55 8 0 6 5 48 40 0 38 21 56 54 0 0 27 50 42 0 0 57 39 17 0 13 36 24 45 0 20 1 9 25 0 49 51 14 37 0 19 16 3 26 0 0 2 7 47 18 0 34 28 0 4 33 29 52 0 0 30 35 31 32 0 10 44 46 23 0 0 0 22 53 41 0 0 0 0 0 0 0 0 0 0 0 0 0 0 0 0 0 0 0 0 0 0 0 0 0 0 0 0 0 0 12 15 43 0 0 0 0 0 0Solution:  11 55 8 0 6 5 48 40 0 38 21 56 54 0 0 27 50 42 0 0 57 39 17 0 13 36 24 45 0 20 1 9 25 0 49 51 14 37 0 19 16 3 26 0 0 2 7 47 18 0 34 28 0 4 33 29 52 0 0 30 35 31 32 0 10 44 46 23 0 0 0 22 53 41 0 0 0 0 0 0 0 0 0 0 0 0 0 0 0 0 0 0 0 0 0 0 0 0 0 0 0 0 0 0 12 15 43 0 0 0 0 0 0 Fitness: 849.91


 :( ---------------------- THE END --------------- :) 