[H[2JIT10k(PID: 0)- 486.130000 2319398.000000
IT10k(PID: 0)- 486.130000 2319398.000000
IT25k(PID: 0)- 464.620000 5735088.000000
IT25k(PID: 0)- 464.620000 5735088.000000
IT50k(PID: 0)- 463.760000 11378075.000000
IT50k(PID: 0)- 463.760000 11378075.000000
IT75k(PID: 0)- 463.760000 17015748.000000
IT75k(PID: 0)- 463.760000 17015748.000000
IT100k(PID: 0)- 463.760000 22659788.000000
IT100k(PID: 0)- 463.760000 22659788.000000

 Current State ---------------------------------------------

Current trial: 1
Current iteration: 100001
Current evaluations: 1500030
Current best cost: 463.76
Current worst cost: 463.76
Current Average cost: 463.76
Current Standard Deviation: 1.17677e-13

Trial: 
Best cost trial: 463.76
Worst cost trial: 1353.05
Iteration best found in trial: 41285
Time best found trial: 9.41227e+06
Time spent in trial: 2.266e+07

Global: 
Global best cost: 463.76
Global worst cost: 1353.05
Trial best found: 1
Iteration best found: 41285
Time best found: 9412266 9.412265778 s.


Best Solution: 
 26 42 12 15 0 33 30 11 29 0 25 10 47 37 0 53 34 0 0 0 22 5 50 31 0 7 14 39 44 0 35 21 46 2 0 51 40 6 8 0 36 20 3 52 0 23 17 18 9 0 48 19 38 0 0 16 49 28 43 0 27 32 41 45 0 0 0 0 0 0 1 24 4 13 0 0 0 0 0 0 0 0 0 0 0 0 0 0 0 0 0 0 0 0 0 0 0 0 0 0 0 0 0 0 0Solution:  26 42 12 15 0 33 30 11 29 0 25 10 47 37 0 53 34 0 0 0 22 5 50 31 0 7 14 39 44 0 35 21 46 2 0 51 40 6 8 0 36 20 3 52 0 23 17 18 9 0 48 19 38 0 0 16 49 28 43 0 27 32 41 45 0 0 0 0 0 0 1 24 4 13 0 0 0 0 0 0 0 0 0 0 0 0 0 0 0 0 0 0 0 0 0 0 0 0 0 0 0 0 0 0 0 Fitness: 463.76


 :( ---------------------- THE END --------------- :) 