[H[2JIT10k(PID: 0)- 471.510000 2487998.000000
IT10k(PID: 0)- 471.510000 2487998.000000
IT25k(PID: 0)- 455.810000 5962824.000000
IT25k(PID: 0)- 455.810000 5962824.000000
IT50k(PID: 0)- 455.210000 11770179.000000
IT50k(PID: 0)- 455.210000 11770179.000000
IT75k(PID: 0)- 454.570000 17557132.000000
IT75k(PID: 0)- 454.570000 17557132.000000
IT100k(PID: 0)- 454.570000 23358988.000000
IT100k(PID: 0)- 454.570000 23358988.000000

 Current State ---------------------------------------------

Current trial: 1
Current iteration: 100001
Current evaluations: 1500030
Current best cost: 454.57
Current worst cost: 910.12
Current Average cost: 484.94
Current Standard Deviation: 117.623

Trial: 
Best cost trial: 454.57
Worst cost trial: 1366.22
Iteration best found in trial: 50414
Time best found trial: 1.18664e+07
Time spent in trial: 2.33592e+07

Global: 
Global best cost: 454.57
Global worst cost: 1366.22
Trial best found: 1
Iteration best found: 50414
Time best found: 11866418 11.86641788 s.


Best Solution: 
 42 12 10 0 24 1 48 30 0 25 47 37 36 0 13 4 51 8 0 11 31 38 19 0 26 14 39 44 0 22 5 35 50 0 23 6 40 29 0 15 21 3 52 0 17 18 53 34 0 33 46 2 16 0 20 49 28 43 0 27 45 0 7 9 32 41 0 0 0 0 0 0 0 0 0 0 0 0 0 0 0 0 0 0 0 0 0 0 0 0 0 0 0 0 0 0 0 0 0 0 0 0 0 0 0Solution:  42 12 10 0 24 1 48 30 0 25 47 37 36 0 13 4 51 8 0 11 31 38 19 0 26 14 39 44 0 22 5 35 50 0 23 6 40 29 0 15 21 3 52 0 17 18 53 34 0 33 46 2 16 0 20 49 28 43 0 27 45 0 7 9 32 41 0 0 0 0 0 0 0 0 0 0 0 0 0 0 0 0 0 0 0 0 0 0 0 0 0 0 0 0 0 0 0 0 0 0 0 0 0 0 0 Fitness: 454.57


 :( ---------------------- THE END --------------- :) 