[H[2JIT10k(PID: 0)- 473.700000 2600118.000000
IT10k(PID: 0)- 473.700000 2600118.000000
IT25k(PID: 0)- 461.260000 6172792.000000
IT25k(PID: 0)- 461.260000 6172792.000000
IT50k(PID: 0)- 459.080000 12251697.000000
IT50k(PID: 0)- 459.080000 12251697.000000
IT75k(PID: 0)- 459.080000 18339612.000000
IT75k(PID: 0)- 459.080000 18339612.000000
IT100k(PID: 0)- 459.080000 24423164.000000
IT100k(PID: 0)- 459.080000 24423164.000000

 Current State ---------------------------------------------

Current trial: 1
Current iteration: 100001
Current evaluations: 1500030
Current best cost: 459.08
Current worst cost: 459.08
Current Average cost: 459.08
Current Standard Deviation: 5.88385e-14

Trial: 
Best cost trial: 459.08
Worst cost trial: 1411.31
Iteration best found in trial: 32976
Time best found trial: 8.10821e+06
Time spent in trial: 2.44233e+07

Global: 
Global best cost: 459.08
Global worst cost: 1411.31
Trial best found: 1
Iteration best found: 32976
Time best found: 8108207 8.108206749 s.


Best Solution: 
 42 12 15 0 1 48 19 0 25 47 37 36 0 26 13 9 0 11 30 33 21 0 0 7 14 39 44 0 22 5 31 38 0 23 6 40 29 0 10 20 3 52 0 17 18 53 34 0 50 46 2 16 0 35 49 28 43 0 0 27 32 41 45 0 0 0 0 0 0 0 0 0 0 0 0 0 0 0 0 0 0 0 0 4 24 51 8 0 0 0 0 0 0 0 0 0 0 0 0 0 0 0 0 0 0Solution:  42 12 15 0 1 48 19 0 25 47 37 36 0 26 13 9 0 11 30 33 21 0 0 7 14 39 44 0 22 5 31 38 0 23 6 40 29 0 10 20 3 52 0 17 18 53 34 0 50 46 2 16 0 35 49 28 43 0 0 27 32 41 45 0 0 0 0 0 0 0 0 0 0 0 0 0 0 0 0 0 0 0 0 4 24 51 8 0 0 0 0 0 0 0 0 0 0 0 0 0 0 0 0 0 0 Fitness: 459.08


 :( ---------------------- THE END --------------- :) 