[H[2JIT10k(PID: 0)- 472.130000 2520044.000000
IT10k(PID: 0)- 472.130000 2520044.000000
IT25k(PID: 0)- 464.720000 5997793.000000
IT25k(PID: 0)- 464.720000 5997793.000000
IT50k(PID: 0)- 462.660000 11823146.000000
IT50k(PID: 0)- 462.660000 11823146.000000
IT75k(PID: 0)- 462.660000 17635004.000000
IT75k(PID: 0)- 462.660000 17635004.000000
IT100k(PID: 0)- 462.450000 23424132.000000
IT100k(PID: 0)- 462.450000 23424132.000000

 Current State ---------------------------------------------

Current trial: 1
Current iteration: 100001
Current evaluations: 1500030
Current best cost: 462.45
Current worst cost: 462.45
Current Average cost: 462.45
Current Standard Deviation: 1.76516e-13

Trial: 
Best cost trial: 462.45
Worst cost trial: 1391.07
Iteration best found in trial: 99632
Time best found trial: 2.33392e+07
Time spent in trial: 2.34245e+07

Global: 
Global best cost: 462.45
Global worst cost: 1391.07
Trial best found: 1
Iteration best found: 99632
Time best found: 23339200 23.33919907 s.


Best Solution: 
 12 15 0 1 11 48 50 0 31 38 19 29 0 42 13 24 23 0 25 10 47 30 0 7 14 39 44 0 22 5 35 46 0 0 51 40 6 8 0 0 36 37 20 3 0 4 17 18 9 0 33 21 52 16 0 2 49 28 43 0 27 32 41 45 0 0 0 26 53 34 0 0 0 0 0 0 0 0 0 0 0 0 0 0 0 0 0 0 0 0 0 0 0 0 0 0 0 0 0 0 0 0 0 0 0Solution:  12 15 0 1 11 48 50 0 31 38 19 29 0 42 13 24 23 0 25 10 47 30 0 7 14 39 44 0 22 5 35 46 0 0 51 40 6 8 0 0 36 37 20 3 0 4 17 18 9 0 33 21 52 16 0 2 49 28 43 0 27 32 41 45 0 0 0 26 53 34 0 0 0 0 0 0 0 0 0 0 0 0 0 0 0 0 0 0 0 0 0 0 0 0 0 0 0 0 0 0 0 0 0 0 0 Fitness: 462.45


 :( ---------------------- THE END --------------- :) 