[H[2JIT10k(PID: 0)- 401.550000 1315671.000000
IT10k(PID: 0)- 401.550000 1315671.000000
IT25k(PID: 0)- 401.550000 3212748.000000
IT25k(PID: 0)- 401.550000 3212748.000000
IT50k(PID: 0)- 401.550000 6341965.000000
IT50k(PID: 0)- 401.550000 6341965.000000
IT75k(PID: 0)- 401.550000 9461377.000000
IT75k(PID: 0)- 401.550000 9461377.000000
IT100k(PID: 0)- 401.550000 12602476.000000
IT100k(PID: 0)- 401.550000 12602476.000000

 Current State ---------------------------------------------

Current trial: 1
Current iteration: 100001
Current evaluations: 1500030
Current best cost: 401.55
Current worst cost: 401.55
Current Average cost: 401.55
Current Standard Deviation: 1.17677e-13

Trial: 
Best cost trial: 401.55
Worst cost trial: 966.55
Iteration best found in trial: 9295
Time best found trial: 1.22334e+06
Time spent in trial: 1.26026e+07

Global: 
Global best cost: 401.55
Global worst cost: 966.55
Trial best found: 1
Iteration best found: 9295
Time best found: 1223339 1.223338962 s.


Best Solution: 
 13 21 3 5 0 12 18 8 11 0 7 22 23 24 0 1 31 25 20 0 33 28 14 30 0 10 6 26 15 0 32 4 0 16 2 9 17 0 19 29 0 27 0 0 0 0 0 0 0 0 0 0 0 0 0 0 0 0 0 0 0 0 0 0 0Solution:  13 21 3 5 0 12 18 8 11 0 7 22 23 24 0 1 31 25 20 0 33 28 14 30 0 10 6 26 15 0 32 4 0 16 2 9 17 0 19 29 0 27 0 0 0 0 0 0 0 0 0 0 0 0 0 0 0 0 0 0 0 0 0 0 0 Fitness: 401.55


 :( ---------------------- THE END --------------- :) 