[H[2JIT10k(PID: 0)- 362.980000 1167964.000000
IT10k(PID: 0)- 362.980000 1167964.000000
IT25k(PID: 0)- 360.430000 2755988.000000
IT25k(PID: 0)- 360.430000 2755988.000000
IT50k(PID: 0)- 359.600000 5399168.000000
IT50k(PID: 0)- 359.600000 5399168.000000
IT75k(PID: 0)- 359.600000 8038640.000000
IT75k(PID: 0)- 359.600000 8038640.000000
IT100k(PID: 0)- 347.600000 10551883.000000
IT100k(PID: 0)- 347.600000 10551883.000000

 Current State ---------------------------------------------

Current trial: 1
Current iteration: 100001
Current evaluations: 1500030
Current best cost: 359.6
Current worst cost: 359.6
Current Average cost: 359.6
Current Standard Deviation: 5.88385e-14

Trial: 
Best cost trial: 347.6
Worst cost trial: 969.06
Iteration best found in trial: 85821
Time best found trial: 9.19849e+06
Time spent in trial: 1.0552e+07

Global: 
Global best cost: 347.6
Global worst cost: 969.06
Trial best found: 1
Iteration best found: 85821
Time best found: 9198489 9.198489189 s.


Best Solution: 
 4 13 11 8 0 15 24 17 12 0 21 19 22 18 0 16 25 20 0 3 26 9 5 0 14 1 23 27 0 7 10 6 2 0 0 0 0 0 0 0 0 0 0 0 0 0 0 0 0 0 0 0 0Solution:  4 13 11 8 0 15 24 17 12 0 21 19 22 18 0 16 25 20 0 3 26 9 5 0 14 1 23 27 0 7 10 6 2 0 0 0 0 0 0 0 0 0 0 0 0 0 0 0 0 0 0 0 0 Fitness: 347.6


 :( ---------------------- THE END --------------- :) 