[H[2JIT10k(PID: 0)- 348.240000 1039818.000000
IT10k(PID: 0)- 348.240000 1039818.000000
IT25k(PID: 0)- 348.240000 2573695.000000
IT25k(PID: 0)- 348.240000 2573695.000000
IT50k(PID: 0)- 348.240000 5121911.000000
IT50k(PID: 0)- 348.240000 5121911.000000
IT75k(PID: 0)- 348.240000 7663228.000000
IT75k(PID: 0)- 348.240000 7663228.000000
IT100k(PID: 0)- 348.240000 10103056.000000
IT100k(PID: 0)- 348.240000 10103056.000000

 Current State ---------------------------------------------

Current trial: 1
Current iteration: 100001
Current evaluations: 1500030
Current best cost: 348.24
Current worst cost: 476.91
Current Average cost: 356.818
Current Standard Deviation: 33.2225

Trial: 
Best cost trial: 348.24
Worst cost trial: 1034.31
Iteration best found in trial: 1899
Time best found trial: 202462
Time spent in trial: 1.01032e+07

Global: 
Global best cost: 348.24
Global worst cost: 1034.31
Trial best found: 1
Iteration best found: 1899
Time best found: 202462 0.2024620026 s.


Best Solution: 
 4 11 13 0 15 24 26 5 0 21 19 22 18 0 16 25 7 9 0 8 3 17 12 0 14 1 23 27 0 10 2 6 20 0 0 0 0 0 0 0 0 0 0 0 0 0 0 0 0 0 0 0 0Solution:  4 11 13 0 15 24 26 5 0 21 19 22 18 0 16 25 7 9 0 8 3 17 12 0 14 1 23 27 0 10 2 6 20 0 0 0 0 0 0 0 0 0 0 0 0 0 0 0 0 0 0 0 0 Fitness: 348.24


 :( ---------------------- THE END --------------- :) 