[H[2JIT10k(PID: 0)- 362.500000 1055975.000000
IT10k(PID: 0)- 362.500000 1055975.000000
IT25k(PID: 0)- 362.500000 2557586.000000
IT25k(PID: 0)- 362.500000 2557586.000000
IT50k(PID: 0)- 362.500000 5062165.000000
IT50k(PID: 0)- 362.500000 5062165.000000
IT75k(PID: 0)- 362.500000 7563436.000000
IT75k(PID: 0)- 362.500000 7563436.000000
IT100k(PID: 0)- 362.500000 10076025.000000
IT100k(PID: 0)- 362.500000 10076025.000000

 Current State ---------------------------------------------

Current trial: 1
Current iteration: 100001
Current evaluations: 1500030
Current best cost: 362.5
Current worst cost: 704.5
Current Average cost: 404.54
Current Standard Deviation: 111.401

Trial: 
Best cost trial: 362.5
Worst cost trial: 944.57
Iteration best found in trial: 2979
Time best found trial: 317364
Time spent in trial: 1.00762e+07

Global: 
Global best cost: 362.5
Global worst cost: 944.57
Trial best found: 1
Iteration best found: 2979
Time best found: 317364 0.3173640072 s.


Best Solution: 
 4 13 11 8 0 15 24 26 3 0 21 19 22 18 0 16 25 7 9 0 17 12 5 14 0 10 23 1 27 0 20 6 2 0 0 0 0 0 0 0 0 0 0 0 0 0 0 0 0 0 0 0 0Solution:  4 13 11 8 0 15 24 26 3 0 21 19 22 18 0 16 25 7 9 0 17 12 5 14 0 10 23 1 27 0 20 6 2 0 0 0 0 0 0 0 0 0 0 0 0 0 0 0 0 0 0 0 0 Fitness: 362.5


 :( ---------------------- THE END --------------- :) 