[H[2JIT10k(PID: 0)- 1529.310000 2969672.000000
IT10k(PID: 0)- 1529.310000 2969672.000000
IT25k(PID: 0)- 1456.990000 7181891.000000
IT25k(PID: 0)- 1456.990000 7181891.000000
IT50k(PID: 0)- 1431.410000 14181325.000000
IT50k(PID: 0)- 1431.410000 14181325.000000
IT75k(PID: 0)- 1431.410000 20778372.000000
IT75k(PID: 0)- 1431.410000 20778372.000000
IT100k(PID: 0)- 1431.410000 27372896.000000
IT100k(PID: 0)- 1431.410000 27372896.000000

 Current State ---------------------------------------------

Current trial: 1
Current iteration: 100001
Current evaluations: 1500030
Current best cost: 1431.41
Current worst cost: 2357.92
Current Average cost: 1522.02
Current Standard Deviation: 238.044

Trial: 
Best cost trial: 1431.41
Worst cost trial: 3226.07
Iteration best found in trial: 46493
Time best found trial: 1.32554e+07
Time spent in trial: 2.73733e+07

Global: 
Global best cost: 1431.41
Global worst cost: 3226.07
Trial best found: 1
Iteration best found: 46493
Time best found: 13255450 13.25545025 s.


Best Solution: 
 16 57 0 40 18 24 0 55 12 13 2 0 9 14 37 45 0 6 35 21 5 0 1 15 31 30 0 20 17 27 54 0 28 26 4 43 0 47 8 29 38 0 36 11 53 42 0 41 34 19 52 0 7 23 50 10 0 39 22 56 25 0 0 46 33 32 44 0 3 48 49 51 0 0 0 0 0 0 0 0 0 0 0 0 0 0 0 0 0 0 0 0 0 0 0 0 0 0 0 0 0 0 0 0 0 0 0 0 0 0 0 0 0Solution:  16 57 0 40 18 24 0 55 12 13 2 0 9 14 37 45 0 6 35 21 5 0 1 15 31 30 0 20 17 27 54 0 28 26 4 43 0 47 8 29 38 0 36 11 53 42 0 41 34 19 52 0 7 23 50 10 0 39 22 56 25 0 0 46 33 32 44 0 3 48 49 51 0 0 0 0 0 0 0 0 0 0 0 0 0 0 0 0 0 0 0 0 0 0 0 0 0 0 0 0 0 0 0 0 0 0 0 0 0 0 0 0 0 Fitness: 1431.41


 :( ---------------------- THE END --------------- :) 