[H[2JIT10k(PID: 0)- 1480.060000 2814423.000000
IT10k(PID: 0)- 1480.060000 2814423.000000
IT25k(PID: 0)- 1448.720000 6813407.000000
IT25k(PID: 0)- 1448.720000 6813407.000000
IT50k(PID: 0)- 1447.940000 13481935.000000
IT50k(PID: 0)- 1447.940000 13481935.000000
IT75k(PID: 0)- 1447.940000 20140524.000000
IT75k(PID: 0)- 1447.940000 20140524.000000
IT100k(PID: 0)- 1447.940000 26851180.000000
IT100k(PID: 0)- 1447.940000 26851180.000000

 Current State ---------------------------------------------

Current trial: 1
Current iteration: 100001
Current evaluations: 1500030
Current best cost: 1447.94
Current worst cost: 2638.94
Current Average cost: 1570.54
Current Standard Deviation: 339.421

Trial: 
Best cost trial: 1447.94
Worst cost trial: 3176.75
Iteration best found in trial: 44688
Time best found trial: 1.20632e+07
Time spent in trial: 2.68515e+07

Global: 
Global best cost: 1447.94
Global worst cost: 3176.75
Trial best found: 1
Iteration best found: 44688
Time best found: 12063181 12.06318092 s.


Best Solution: 
 16 7 6 3 0 40 18 24 0 13 2 12 9 0 55 14 37 45 0 57 48 49 21 0 35 1 31 15 0 28 10 27 54 0 20 17 26 23 0 47 8 29 5 0 41 34 30 52 0 36 19 51 38 0 39 56 4 25 0 22 43 50 0 11 42 53 44 0 46 32 33 0 0 0 0 0 0 0 0 0 0 0 0 0 0 0 0 0 0 0 0 0 0 0 0 0 0 0 0 0 0 0 0 0 0 0 0 0 0 0 0 0 0Solution:  16 7 6 3 0 40 18 24 0 13 2 12 9 0 55 14 37 45 0 57 48 49 21 0 35 1 31 15 0 28 10 27 54 0 20 17 26 23 0 47 8 29 5 0 41 34 30 52 0 36 19 51 38 0 39 56 4 25 0 22 43 50 0 11 42 53 44 0 46 32 33 0 0 0 0 0 0 0 0 0 0 0 0 0 0 0 0 0 0 0 0 0 0 0 0 0 0 0 0 0 0 0 0 0 0 0 0 0 0 0 0 0 0 Fitness: 1447.94


 :( ---------------------- THE END --------------- :) 