540.06
33 52 7 47 0 26 13 8 55 0 50 42 56 38 0 6 57 15 43 0 4 14 30 29 0 25 3 24 45 0 46 32 31 44 0 9 54 21 36 0 20 28 18 35 0 40 10 53 41 0 48 39 17 23 0 19 12 11 1 0 51 49 2 5 0 37 16 27 22 0 34 0 
19512
