[H[2JIT10k(PID: 0)- 609.600000 2849503.000000
IT10k(PID: 0)- 609.600000 2849503.000000
IT25k(PID: 0)- 561.340000 6799922.000000
IT25k(PID: 0)- 561.340000 6799922.000000
IT50k(PID: 0)- 541.340000 13237861.000000
IT50k(PID: 0)- 541.340000 13237861.000000
IT75k(PID: 0)- 538.680000 19675020.000000
IT75k(PID: 0)- 538.680000 19675020.000000
IT100k(PID: 0)- 537.780000 26090548.000000
IT100k(PID: 0)- 537.780000 26090548.000000

 Current State ---------------------------------------------

Current trial: 1
Current iteration: 100001
Current evaluations: 1500030
Current best cost: 537.78
Current worst cost: 826.29
Current Average cost: 557.014
Current Standard Deviation: 74.493

Trial: 
Best cost trial: 537.78
Worst cost trial: 1662.44
Iteration best found in trial: 86119
Time best found trial: 2.25344e+07
Time spent in trial: 2.60908e+07

Global: 
Global best cost: 537.78
Global worst cost: 1662.44
Trial best found: 1
Iteration best found: 86119
Time best found: 22534416 22.5344162 s.


Best Solution: 
 20 4 28 0 34 27 16 37 0 25 3 21 56 0 49 7 47 35 0 22 14 30 40 0 33 10 53 41 0 5 2 57 15 0 50 42 24 45 0 51 29 52 18 0 0 0 9 26 54 0 6 1 12 43 0 48 39 17 23 0 46 32 31 44 0 11 55 8 0 19 38 13 36 0 0 0 0 0 0 0 0 0 0 0 0 0 0 0 0 0 0 0 0 0 0 0 0 0 0 0 0 0 0 0 0 0 0 0 0 0 0 0 0Solution:  20 4 28 0 34 27 16 37 0 25 3 21 56 0 49 7 47 35 0 22 14 30 40 0 33 10 53 41 0 5 2 57 15 0 50 42 24 45 0 51 29 52 18 0 0 0 9 26 54 0 6 1 12 43 0 48 39 17 23 0 46 32 31 44 0 11 55 8 0 19 38 13 36 0 0 0 0 0 0 0 0 0 0 0 0 0 0 0 0 0 0 0 0 0 0 0 0 0 0 0 0 0 0 0 0 0 0 0 0 0 0 0 0 Fitness: 537.78


 :( ---------------------- THE END --------------- :) 