[H[2JIT10k(PID: 0)- 606.690000 2765362.000000
IT10k(PID: 0)- 606.690000 2765362.000000
IT25k(PID: 0)- 571.340000 6729322.000000
IT25k(PID: 0)- 571.340000 6729322.000000
IT50k(PID: 0)- 568.990000 13310621.000000
IT50k(PID: 0)- 568.990000 13310621.000000
IT75k(PID: 0)- 568.990000 19983640.000000
IT75k(PID: 0)- 568.990000 19983640.000000
IT100k(PID: 0)- 568.990000 26427532.000000
IT100k(PID: 0)- 568.990000 26427532.000000

 Current State ---------------------------------------------

Current trial: 1
Current iteration: 100001
Current evaluations: 1500030
Current best cost: 568.99
Current worst cost: 640.71
Current Average cost: 573.771
Current Standard Deviation: 18.518

Trial: 
Best cost trial: 568.99
Worst cost trial: 1645.51
Iteration best found in trial: 33452
Time best found trial: 8.94789e+06
Time spent in trial: 2.64278e+07

Global: 
Global best cost: 568.99
Global worst cost: 1645.51
Trial best found: 1
Iteration best found: 33452
Time best found: 8947887 8.947887421 s.


Best Solution: 
 20 4 51 30 0 27 16 19 0 22 37 9 26 0 28 7 47 39 0 49 40 33 29 0 14 53 41 10 0 34 5 48 2 0 25 3 42 21 0 0 50 54 24 45 0 56 13 36 0 6 1 11 12 0 15 57 17 23 0 46 32 31 44 0 38 8 55 43 0 52 18 35 0 0 0 0 0 0 0 0 0 0 0 0 0 0 0 0 0 0 0 0 0 0 0 0 0 0 0 0 0 0 0 0 0 0 0 0 0 0 0 0 0Solution:  20 4 51 30 0 27 16 19 0 22 37 9 26 0 28 7 47 39 0 49 40 33 29 0 14 53 41 10 0 34 5 48 2 0 25 3 42 21 0 0 50 54 24 45 0 56 13 36 0 6 1 11 12 0 15 57 17 23 0 46 32 31 44 0 38 8 55 43 0 52 18 35 0 0 0 0 0 0 0 0 0 0 0 0 0 0 0 0 0 0 0 0 0 0 0 0 0 0 0 0 0 0 0 0 0 0 0 0 0 0 0 0 0 Fitness: 568.99


 :( ---------------------- THE END --------------- :) 