[H[2JIT10k(PID: 0)- 477.920000 2012618.000000
IT10k(PID: 0)- 477.920000 2012618.000000
IT25k(PID: 0)- 442.340000 4874165.000000
IT25k(PID: 0)- 442.340000 4874165.000000
IT50k(PID: 0)- 435.340000 9469873.000000
IT50k(PID: 0)- 435.340000 9469873.000000
IT75k(PID: 0)- 435.340000 14057910.000000
IT75k(PID: 0)- 435.340000 14057910.000000
IT100k(PID: 0)- 435.340000 18641416.000000
IT100k(PID: 0)- 435.340000 18641416.000000

 Current State ---------------------------------------------

Current trial: 1
Current iteration: 100001
Current evaluations: 1500030
Current best cost: 435.34
Current worst cost: 435.34
Current Average cost: 435.34
Current Standard Deviation: 1.17677e-13

Trial: 
Best cost trial: 435.34
Worst cost trial: 1363.65
Iteration best found in trial: 33265
Time best found trial: 6.3911e+06
Time spent in trial: 1.86417e+07

Global: 
Global best cost: 435.34
Global worst cost: 1363.65
Trial best found: 1
Iteration best found: 33265
Time best found: 6391103 6.391102791 s.


Best Solution: 
 14 27 33 23 0 8 29 34 39 0 4 13 11 43 0 22 24 12 9 0 37 42 38 31 0 19 18 20 17 0 35 3 41 32 0 15 36 7 10 0 30 28 40 21 0 16 5 1 25 0 44 26 2 6 0 0 0 0 0 0 0 0 0 0 0 0 0 0 0 0 0 0 0 0 0 0 0 0 0 0 0 0 0 0 0 0 0Solution:  14 27 33 23 0 8 29 34 39 0 4 13 11 43 0 22 24 12 9 0 37 42 38 31 0 19 18 20 17 0 35 3 41 32 0 15 36 7 10 0 30 28 40 21 0 16 5 1 25 0 44 26 2 6 0 0 0 0 0 0 0 0 0 0 0 0 0 0 0 0 0 0 0 0 0 0 0 0 0 0 0 0 0 0 0 0 0 Fitness: 435.34


 :( ---------------------- THE END --------------- :) 