[H[2JIT10k(PID: 0)- 473.120000 1922433.000000
IT10k(PID: 0)- 473.120000 1922433.000000
IT25k(PID: 0)- 440.210000 4783961.000000
IT25k(PID: 0)- 440.210000 4783961.000000
IT50k(PID: 0)- 440.210000 9470710.000000
IT50k(PID: 0)- 440.210000 9470710.000000
IT75k(PID: 0)- 440.210000 14147579.000000
IT75k(PID: 0)- 440.210000 14147579.000000
IT100k(PID: 0)- 440.210000 18823956.000000
IT100k(PID: 0)- 440.210000 18823956.000000

 Current State ---------------------------------------------

Current trial: 1
Current iteration: 100001
Current evaluations: 1500030
Current best cost: 440.21
Current worst cost: 663.01
Current Average cost: 465.331
Current Standard Deviation: 67.5559

Trial: 
Best cost trial: 440.21
Worst cost trial: 1402.72
Iteration best found in trial: 19619
Time best found trial: 3.7549e+06
Time spent in trial: 1.88242e+07

Global: 
Global best cost: 440.21
Global worst cost: 1402.72
Trial best found: 1
Iteration best found: 19619
Time best found: 3754896 3.754895926 s.


Best Solution: 
 14 27 36 40 0 8 29 13 43 0 4 11 34 39 0 22 24 12 9 0 37 42 38 31 0 30 28 19 18 0 35 3 41 32 0 23 7 10 21 0 20 17 33 15 0 16 5 1 25 0 44 26 2 6 0 0 0 0 0 0 0 0 0 0 0 0 0 0 0 0 0 0 0 0 0 0 0 0 0 0 0 0 0 0 0 0 0Solution:  14 27 36 40 0 8 29 13 43 0 4 11 34 39 0 22 24 12 9 0 37 42 38 31 0 30 28 19 18 0 35 3 41 32 0 23 7 10 21 0 20 17 33 15 0 16 5 1 25 0 44 26 2 6 0 0 0 0 0 0 0 0 0 0 0 0 0 0 0 0 0 0 0 0 0 0 0 0 0 0 0 0 0 0 0 0 0 Fitness: 440.21


 :( ---------------------- THE END --------------- :) 