[H[2JIT10k(PID: 0)- 455.200000 1932529.000000
IT10k(PID: 0)- 455.200000 1932529.000000
IT25k(PID: 0)- 441.860000 4955507.000000
IT25k(PID: 0)- 441.860000 4955507.000000
IT50k(PID: 0)- 434.250000 9424378.000000
IT50k(PID: 0)- 434.250000 9424378.000000
IT75k(PID: 0)- 434.250000 14067300.000000
IT75k(PID: 0)- 434.250000 14067300.000000
IT100k(PID: 0)- 434.250000 18545176.000000
IT100k(PID: 0)- 434.250000 18545176.000000

 Current State ---------------------------------------------

Current trial: 1
Current iteration: 100001
Current evaluations: 1500030
Current best cost: 434.25
Current worst cost: 434.25
Current Average cost: 434.25
Current Standard Deviation: 0

Trial: 
Best cost trial: 434.25
Worst cost trial: 1340.3
Iteration best found in trial: 39910
Time best found trial: 7.61773e+06
Time spent in trial: 1.85453e+07

Global: 
Global best cost: 434.25
Global worst cost: 1340.3
Trial best found: 1
Iteration best found: 39910
Time best found: 7617727 7.617726803 s.


Best Solution: 
 14 27 36 40 0 8 29 13 43 0 4 11 34 39 0 22 24 12 9 0 35 3 38 31 0 19 18 20 17 0 37 42 41 32 0 23 7 44 10 0 30 28 33 15 0 16 5 1 26 0 21 25 2 6 0 0 0 0 0 0 0 0 0 0 0 0 0 0 0 0 0 0 0 0 0 0 0 0 0 0 0 0 0 0 0 0 0Solution:  14 27 36 40 0 8 29 13 43 0 4 11 34 39 0 22 24 12 9 0 35 3 38 31 0 19 18 20 17 0 37 42 41 32 0 23 7 44 10 0 30 28 33 15 0 16 5 1 26 0 21 25 2 6 0 0 0 0 0 0 0 0 0 0 0 0 0 0 0 0 0 0 0 0 0 0 0 0 0 0 0 0 0 0 0 0 0 Fitness: 434.25


 :( ---------------------- THE END --------------- :) 