[H[2JIT10k(PID: 0)- 469.980000 1599253.000000
IT10k(PID: 0)- 469.980000 1599253.000000
IT25k(PID: 0)- 468.870000 3692997.000000
IT25k(PID: 0)- 468.870000 3692997.000000
IT50k(PID: 0)- 468.870000 7199248.000000
IT50k(PID: 0)- 468.870000 7199248.000000
IT75k(PID: 0)- 468.870000 10719859.000000
IT75k(PID: 0)- 468.870000 10719859.000000
IT100k(PID: 0)- 468.870000 14245928.000000
IT100k(PID: 0)- 468.870000 14245928.000000

 Current State ---------------------------------------------

Current trial: 1
Current iteration: 100001
Current evaluations: 1500030
Current best cost: 468.87
Current worst cost: 468.87
Current Average cost: 468.87
Current Standard Deviation: 5.88385e-14

Trial: 
Best cost trial: 468.87
Worst cost trial: 1371.46
Iteration best found in trial: 13957
Time best found trial: 2.15038e+06
Time spent in trial: 1.4246e+07

Global: 
Global best cost: 468.87
Global worst cost: 1371.46
Trial best found: 1
Iteration best found: 13957
Time best found: 2150380 2.150379896 s.


Best Solution: 
 24 10 18 19 0 20 14 23 3 0 0 9 26 8 0 6 15 33 27 0 32 34 35 28 0 16 30 2 12 0 25 4 37 36 0 13 17 7 0 0 29 21 1 11 0 31 5 22 0 0 0 0 0 0 0 0 0 0 0 0 0 0 0 0 0 0 0 0 0 0 0 0 0Solution:  24 10 18 19 0 20 14 23 3 0 0 9 26 8 0 6 15 33 27 0 32 34 35 28 0 16 30 2 12 0 25 4 37 36 0 13 17 7 0 0 29 21 1 11 0 31 5 22 0 0 0 0 0 0 0 0 0 0 0 0 0 0 0 0 0 0 0 0 0 0 0 0 0 Fitness: 468.87


 :( ---------------------- THE END --------------- :) 